// Created by Crowbar 0.62

$modelname "player\arms\tf2_pm\c_pyro_arms.mdl"

$bodygroup "body"
{
	studio "pyro.smd"
}
$bodygroup "righthand"
{
	studio "pyro_right.smd"
}

$surfaceprop "default"

$contents "solid"

$illumposition -1.211 51.102 -1.213

$cdmaterials "models\player\pyro\"
$cdmaterials ""

$texturegroup "skinfamilies"
{
	{ "pyro_red"  }
	{ "pyro_blue" }
	{ "pyro_color" }
	{ "pyro_red"  }
	{ "pyro_blue" }
}

$proceduralbones "c_arms_combine.vrd"

$sequence "c_pyro_arms" {
	"pyro.smd"
	fadein 0.2
	fadeout 0.2
	fps 30
}

