version 1
nodes
0 "ValveBiped.Bip01_Pelvis" -1
1 "bip_pelvis" 0
2 "prp_pouch" 1
3 "mvm" 1
4 "ValveBiped.Bip01_Spine" 0
5 "bip_spine_0" 4
6 "ValveBiped.Bip01_Spine1" 4
7 "bip_spine_1" 6
8 "prp_cannister1" 7
9 "prp_cannister2" 7
10 "prp_cannister3" 7
11 "ValveBiped.Bip01_Spine2" 6
12 "bip_spine_2" 11
13 "prp_fuelTank" 12
14 "medal_bone" 12
15 "ValveBiped.Bip01_Spine4" 11
16 "bip_spine_3" 15
17 "ValveBiped.Bip01_Neck1" 15
18 "bip_neck" 17
19 "ValveBiped.Bip01_Head1" 17
20 "bip_head" 19
21 "ValveBiped.forward" 19
22 "ValveBiped.Bip01_R_Clavicle" 15
23 "bip_collar_R" 22
24 "ValveBiped.Bip01_R_UpperArm" 22
25 "bip_upperArm_R" 24
26 "ValveBiped.Bip01_R_Forearm" 24
27 "bip_lowerArm_R" 26
28 "ValveBiped.Bip01_R_Hand" 26
29 "bip_hand_R" 28
30 "ValveBiped.Anim_Attachment_RH" 28
31 "ValveBiped.Bip01_R_Finger4" 28
32 "bip_pinky_0_R" 31
33 "ValveBiped.Bip01_R_Finger41" 31
34 "bip_pinky_1_R" 33
35 "ValveBiped.Bip01_R_Finger42" 33
36 "bip_pinky_2_R" 35
37 "ValveBiped.Bip01_R_Finger3" 28
38 "bip_ring_0_R" 37
39 "ValveBiped.Bip01_R_Finger31" 37
40 "bip_ring_1_R" 39
41 "ValveBiped.Bip01_R_Finger32" 39
42 "bip_ring_2_R" 41
43 "ValveBiped.Bip01_R_Finger2" 28
44 "bip_middle_0_R" 43
45 "ValveBiped.Bip01_R_Finger21" 43
46 "bip_middle_1_R" 45
47 "ValveBiped.Bip01_R_Finger22" 45
48 "bip_middle_2_R" 47
49 "ValveBiped.Bip01_R_Finger1" 28
50 "bip_index_0_R" 49
51 "ValveBiped.Bip01_R_Finger11" 49
52 "bip_index_1_R" 51
53 "ValveBiped.Bip01_R_Finger12" 51
54 "bip_index_2_R" 53
55 "ValveBiped.Bip01_R_Finger0" 28
56 "bip_thumb_0_R" 55
57 "ValveBiped.Bip01_R_Finger01" 55
58 "bip_thumb_1_R" 57
59 "ValveBiped.Bip01_R_Finger02" 57
60 "bip_thumb_2_R" 59
61 "ValveBiped.Bip01_R_Ulna" 26
62 "ValveBiped.Bip01_L_Clavicle" 15
63 "bip_collar_L" 62
64 "ValveBiped.Bip01_L_UpperArm" 62
65 "bip_upperArm_L" 64
66 "ValveBiped.Bip01_L_Forearm" 64
67 "bip_lowerArm_L" 66
68 "ValveBiped.Bip01_L_Hand" 66
69 "bip_hand_L" 68
70 "ValveBiped.Anim_Attachment_LH" 68
71 "ValveBiped.Bip01_L_Finger4" 68
72 "bip_pinky_0_L" 71
73 "ValveBiped.Bip01_L_Finger41" 71
74 "bip_pinky_1_L" 73
75 "ValveBiped.Bip01_L_Finger42" 73
76 "bip_pinky_2_L" 75
77 "ValveBiped.Bip01_L_Finger3" 68
78 "bip_ring_0_L" 77
79 "ValveBiped.Bip01_L_Finger31" 77
80 "bip_ring_1_L" 79
81 "ValveBiped.Bip01_L_Finger32" 79
82 "bip_ring_2_L" 81
83 "ValveBiped.Bip01_L_Finger2" 68
84 "bip_middle_0_L" 83
85 "ValveBiped.Bip01_L_Finger21" 83
86 "bip_middle_1_L" 85
87 "ValveBiped.Bip01_L_Finger22" 85
88 "bip_middle_2_L" 87
89 "ValveBiped.Bip01_L_Finger1" 68
90 "bip_index_0_L" 89
91 "ValveBiped.Bip01_L_Finger11" 89
92 "bip_index_1_L" 91
93 "ValveBiped.Bip01_L_Finger12" 91
94 "bip_index_2_L" 93
95 "ValveBiped.Bip01_L_Finger0" 68
96 "bip_thumb_0_L" 95
97 "ValveBiped.Bip01_L_Finger01" 95
98 "bip_thumb_1_L" 97
99 "ValveBiped.Bip01_L_Finger02" 97
100 "bip_thumb_2_L" 99
101 "ValveBiped.Bip01_L_Ulna" 66
102 "ValveBiped.Bip01_R_Thigh" 0
103 "bip_hip_R" 102
104 "ValveBiped.Bip01_R_Calf" 102
105 "bip_knee_R" 104
106 "ValveBiped.Bip01_R_Foot" 104
107 "bip_foot_R" 106
108 "ValveBiped.Bip01_R_Toe0" 106
109 "bip_toe_R" 108
110 "ValveBiped.Bip01_L_Thigh" 0
111 "bip_hip_L" 110
112 "ValveBiped.Bip01_L_Calf" 110
113 "bip_knee_L" 112
114 "ValveBiped.Bip01_L_Foot" 112
115 "bip_foot_L" 114
116 "ValveBiped.Bip01_L_Toe0" 114
117 "bip_toe_L" 116
end
skeleton
time 0
0  0.000000 -4.692544 45.471561  1.570796 -0.000000 0.000001
1  -0.000000 0.000000 0.000000  2.635850 -0.000001 0.000000
2  5.052604 1.716967 -7.161283  -2.635849 0.000000 0.000000
3  4.253819 -4.764907 5.464088  -0.562207 -0.306340 -2.854736
4  0.000002 5.610241 -3.106875  1.570795 0.086289 1.570790
5  -0.000011 0.000001 0.000001  1.465733 -1.570790 0.047043
6  6.451431 -0.378322 -0.000039  -0.000000 0.000003 -0.029224
7  -0.000032 0.000000 0.000002  1.598973 -1.570793 0.134091
8  4.860204 -7.185980 -7.153733  3.095814 -0.000000 0.000000
9  2.156816 -4.283525 -9.766013  3.095824 -0.000000 0.000000
10  -1.060523 -1.834213 -11.987594  3.095815 -0.000000 0.000000
11  6.302883 1.025525 -0.000023  -0.000000 -0.000051 0.100317
12  -0.000036 0.000006 0.000005  1.937477 -1.570742 0.002667
13  -0.139599 2.278797 10.677327  2.787822 -0.000000 0.000000
14  -2.323114 -1.629488 -7.201527  2.233222 0.203806 -0.160074
15  3.819016 1.476651 -0.000204  0.000010 0.000058 0.194096
16  -0.000055 0.000019 0.000003  1.936064 -1.570801 -0.018418
17  2.085338 0.807823 0.000010  3.141588 -0.000022 0.372990
18  -0.000049 -0.000044 -0.000003  -1.572419 1.570778 0.166610
19  2.324916 0.394736 0.000040  -0.000005 0.000013 0.302746
20  -0.000051 -0.000017 -0.000001  -1.286261 1.570766 0.084072
21  2.000074 -2.999943 0.000012  -1.570803 -0.000003 -1.326425
22  -0.258611 -1.211193 -3.126702  1.567163 2.023834 -0.181974
23  0.000016 -0.000040 -0.000010  0.171417 -0.332358 -1.694782
24  7.260406 -0.491204 1.188928  2.276321 -0.368982 -0.717484
25  0.000073 0.000007 0.000049  -0.913023 0.000026 0.000037
26  13.734309 0.000208 -0.000033  0.000837 -0.560934 -0.506768
27  0.000046 0.000072 0.000001  -0.764927 0.000004 0.000008
28  11.582283 0.000030 -0.000017  -1.563665 0.106379 0.130256
29  0.000038 0.000004 0.000100  -0.177515 -0.763957 -1.553023
30  2.676091 -1.712454 -0.000005  -1.570799 -0.000003 -1.571322
31  4.912080 1.759289 1.476418  0.478293 -0.182220 -0.394356
32  -0.017078 0.024523 0.016694  0.002748 0.820445 -1.563326
33  2.200076 0.000021 0.000001  0.032619 -0.146823 -0.158454
34  -0.019354 0.034083 0.022847  0.001895 0.800528 -1.564469
35  1.700557 0.000001 -0.000003  0.000002 -0.006132 -0.244282
36  -0.028954 0.036636 0.025229  0.482575 0.802007 -1.326310
37  4.903896 1.122197 0.091955  0.179150 -0.056920 -0.150324
38  -0.007227 0.024093 0.018970  0.008218 1.108678 -1.558427
39  2.427265 -0.000030 -0.000011  0.046975 -0.169097 -0.349000
40  -0.014285 0.033067 0.029162  0.006243 1.093658 -1.560500
41  2.378664 0.000015 -0.000001  0.000001 -0.009662 -0.430786
42  -0.031190 0.034297 0.036303  0.524643 1.097700 -1.146748
43  4.861449 1.019687 -1.899611  -0.046187 -0.058077 -0.163530
44  0.001899 0.020716 0.023242  0.017992 1.306346 -1.549347
45  3.478946 -0.000007 0.000003  0.029581 -0.150636 -0.592287
46  -0.011872 0.031249 0.040857  0.013139 1.325841 -1.554418
47  2.650044 -0.000004 0.000002  -0.000002 -0.004464 -0.216356
48  -0.020179 0.037313 0.049379  0.209287 1.326823 -1.355505
49  4.592911 -0.322856 -3.139333  -0.221487 0.137731 0.042345
50  0.013444 0.014091 0.026842  0.022556 1.328894 -1.545719
51  2.992497 -0.000031 -0.000018  -0.070535 -0.165975 -0.749355
52  0.000848 0.023317 0.045177  0.045255 1.469134 -1.523478
53  2.008695 0.000001 -0.000011  -0.000000 -0.004200 -0.244307
54  -0.005736 0.027322 0.054459  0.343130 1.470251 -1.319015
55  1.152766 -3.017028 -1.652610  1.771659 0.394757 -0.578455
56  0.011380 0.006988 -0.017427  0.007200 -2.475439 -1.572575
57  2.180096 0.000020 -0.000001  0.243202 0.346379 0.287192
58  0.023759 0.003298 -0.024592  0.006594 -2.667537 -1.571852
59  2.149852 0.000018 -0.000010  -0.000006 -0.009620 0.362887
60  0.024466 -0.001423 -0.037460  3.012163 -0.470615 1.202260
61  5.740849 0.000012 -0.000019  0.000079 0.000001 0.000002
62  -0.258587 -1.211203 3.126702  -1.577175 -2.025537 -0.171581
63  0.000035 -0.000066 0.000011  0.166721 -0.333607 1.450030
64  7.266561 -0.478140 -1.156169  -2.274749 0.366016 -0.714468
65  0.000097 -0.000008 -0.000062  -2.226418 0.000008 -0.000019
66  13.734324 -0.000259 -0.000048  -0.001832 0.561991 -0.505611
67  0.000098 0.000053 -0.000019  2.338963 -0.000006 0.000003
68  11.582261 0.000043 0.000004  1.573454 -0.106750 0.134909
69  0.000093 -0.000043 -0.000064  -0.186430 -0.756771 1.593186
70  2.676062 -1.712488 0.000011  1.570789 -0.000006 1.570711
71  4.910116 1.762541 -1.479014  -0.476716 0.177584 -0.392558
72  0.000099 0.000022 -0.000056  0.000000 0.825326 1.570792
73  2.200099 -0.000001 -0.000003  -0.040842 0.145682 -0.159593
74  0.000096 0.000038 -0.000049  -0.000003 0.796156 1.570795
75  1.700521 -0.000021 0.000004  -0.000006 0.004974 -0.244277
76  0.000083 0.000062 -0.000050  0.482300 0.797335 1.810111
77  4.900857 1.135382 -0.090008  -0.187861 0.053841 -0.147906
78  0.000086 -0.000017 -0.000078  0.000007 1.105807 1.570810
79  2.427287 0.000022 -0.000007  -0.050045 0.169737 -0.348640
80  0.000102 0.000014 -0.000066  0.000002 1.085726 1.570803
81  2.378682 -0.000004 -0.000012  -0.000001 0.007360 -0.430818
82  0.000077 0.000053 -0.000069  0.523145 1.088752 1.988861
83  4.854651 1.047033 1.902148  0.051127 0.054913 -0.161079
84  0.000100 -0.000031 -0.000066  0.000028 1.317003 1.570799
85  3.478907 -0.000063 0.000010  -0.030717 0.144098 -0.593719
86  0.000118 0.000028 -0.000054  -0.000014 1.330431 1.570780
87  2.650068 0.000023 -0.000000  0.000002 0.003074 -0.216378
88  0.000107 0.000044 -0.000057  0.201498 1.331081 1.774919
89  4.587280 -0.287411 3.150883  0.219368 -0.139449 0.046157
90  0.000085 -0.000070 -0.000076  0.000007 1.334862 1.570804
91  2.992550 0.000020 -0.000014  0.081199 0.162433 -0.749949
92  0.000124 -0.000004 -0.000054  -0.000184 1.480108 1.570593
93  2.008633 -0.000018 0.000010  0.000001 0.002593 -0.244320
94  0.000124 0.000017 -0.000053  0.309958 1.480705 1.787242
95  1.157836 -3.001882 1.676502  -1.516837 -0.400379 -0.573562
96  0.000062 0.000099 0.000001  0.000021 -2.215992 1.570797
97  2.180084 0.000001 0.000003  -0.178849 -0.262531 0.365101
98  0.000096 0.000082 -0.000008  0.000003 -2.346106 1.570796
99  2.149842 0.000002 -0.000000  0.000010 0.011267 0.362866
100  0.000113 0.000050 -0.000009  -0.131116 -2.350154 1.197250
101  5.740852 0.000072 0.000004  0.000702 0.000001 0.000011
102  -5.434129 -4.477657 -0.278503  -1.567813 -0.032077 -1.653085
103  0.000015 0.000008 0.000001  1.853618 -0.000009 0.000001
104  15.896475 -0.000018 -0.000002  0.005258 -0.099138 0.349322
105  -0.000008 0.000005 0.000005  1.830840 -0.000039 -0.000013
106  21.120243 -0.000117 -0.000005  0.002972 -0.019336 -1.264131
107  0.000016 -0.000021 -0.000000  -1.160748 -1.261098 -0.547079
108  6.559420 -0.783726 -1.923110  -0.060726 -0.009535 -0.555549
109  0.000033 -0.000019 0.000003  -1.458009 -1.246525 -0.173620
110  5.434128 -4.477638 -0.278487  -1.573765 -0.032078 -1.488509
111  0.000009 0.000006 -0.000000  1.287959 0.000006 -0.000004
112  15.896507 -0.000039 -0.000000  -0.004885 0.099143 0.349314
113  -0.000005 0.000032 0.000001  2.881150 0.000009 0.000009
114  21.120247 -0.000036 0.000001  0.004050 0.018879 -1.264268
115  -0.000064 0.000001 -0.000009  2.000793 -1.884198 -0.565893
116  6.559714 -0.768951 1.928067  -0.000111 -0.003639 -0.555364
117  -0.000062 -0.000030 -0.000007  1.511406 -1.880556 -0.010311
end
triangles
pyro_red
0  1.443862 -10.349354 61.392113  -0.689605 -0.552475 -0.468205  0.353534 0.244858 1 9 1.000000
0  0.879374 -10.809454 62.766441  -0.689605 -0.552475 -0.468205  0.363451 0.232862 1 9 1.000000
0  0.598971 -10.148767 62.399837  -0.689605 -0.552476 -0.468204  0.363451 0.244858 1 9 1.000000
pyro_red
0  1.443862 -10.349354 61.392113  -0.689605 -0.552475 -0.468205  0.353534 0.244858 1 9 1.000000
0  1.724265 -11.010042 61.758717  -0.689606 -0.552474 -0.468205  0.353534 0.232862 1 9 1.000000
0  0.879374 -10.809454 62.766441  -0.689605 -0.552475 -0.468205  0.363451 0.232862 1 9 1.000000
pyro_red
0  -1.923944 -12.127929 60.653000  -0.635135 0.150788 0.757540  0.422330 0.295803 1 10 1.000000
0  -2.064145 -11.797585 60.469700  -0.635137 0.150784 0.757539  0.422326 0.289516 1 10 1.000000
0  -2.374903 -11.825216 60.214653  -0.635135 0.150789 0.757540  0.419597 0.286378 1 10 1.000000
pyro_red
0  -1.923944 -12.127929 60.653000  -0.635135 0.150788 0.757540  0.422330 0.295803 1 10 1.000000
0  -2.374903 -11.825216 60.214653  -0.635135 0.150789 0.757540  0.419597 0.286378 1 10 1.000000
0  -2.094501 -12.485903 60.581257  -0.635133 0.150790 0.757541  0.419605 0.298954 1 10 1.000000
pyro_red
0  -3.435328 -12.674771 59.494682  -0.635131 0.150791 0.757543  0.407583 0.286426 1 10 1.000000
0  -2.094501 -12.485903 60.581257  -0.635133 0.150790 0.757541  0.419605 0.298954 1 10 1.000000
0  -2.374903 -11.825216 60.214653  -0.635135 0.150789 0.757540  0.419597 0.286378 1 10 1.000000
pyro_red
0  -3.435328 -12.674771 59.494682  -0.635131 0.150791 0.757543  0.407583 0.286426 1 10 1.000000
0  -3.154927 -13.335458 59.861286  -0.635129 0.150791 0.757544  0.407587 0.298953 1 10 1.000000
0  -2.094501 -12.485903 60.581257  -0.635133 0.150790 0.757541  0.419605 0.298954 1 10 1.000000
pyro_red
0  -0.869345 -12.378313 59.395206  0.689589 0.552510 0.468187  0.363567 0.269568 1 10 1.000000
0  -2.064145 -11.797585 60.469700  0.689597 0.552481 0.468209  0.344097 0.278976 1 10 1.000000
0  -1.923944 -12.127929 60.653000  0.689599 0.552475 0.468214  0.344145 0.269436 1 10 1.000000
pyro_red
0  -0.869345 -12.378313 59.395206  0.689589 0.552510 0.468187  0.363567 0.269568 1 10 1.000000
0  -1.009546 -12.047960 59.211849  0.689588 0.552516 0.468182  0.363600 0.278989 1 10 1.000000
0  -2.064145 -11.797585 60.469700  0.689597 0.552481 0.468209  0.344097 0.278976 1 10 1.000000
pyro_red
0  -1.560963 -12.268395 58.793419  -0.689606 -0.552472 -0.468208  0.353534 0.244858 1 10 1.000000
0  -2.125452 -12.728493 60.167736  -0.689605 -0.552473 -0.468208  0.363451 0.232862 1 10 1.000000
0  -2.405854 -12.067806 59.801132  -0.689603 -0.552475 -0.468208  0.363451 0.244858 1 10 1.000000
pyro_red
0  -1.560963 -12.268395 58.793419  -0.689606 -0.552472 -0.468208  0.353534 0.244858 1 10 1.000000
0  -1.280560 -12.929081 59.160011  -0.689608 -0.552470 -0.468207  0.353534 0.232862 1 10 1.000000
0  -2.125452 -12.728493 60.167736  -0.689605 -0.552473 -0.468208  0.363451 0.232862 1 10 1.000000
pyro_red
0  -2.125452 -12.728493 60.167736  0.635136 -0.150790 -0.757538  0.363451 0.232862 1 10 1.000000
0  -3.129501 -12.647552 59.309818  0.635136 -0.150790 -0.757539  0.371273 0.244858 1 10 1.000000
0  -2.405854 -12.067806 59.801132  0.635136 -0.150790 -0.757538  0.363451 0.244858 1 10 1.000000
pyro_red
0  -2.125452 -12.728493 60.167736  0.635136 -0.150790 -0.757538  0.363451 0.232862 1 10 1.000000
0  -2.849098 -13.308240 59.676422  0.635136 -0.150789 -0.757539  0.371273 0.232862 1 10 1.000000
0  -3.129501 -12.647552 59.309818  0.635136 -0.150790 -0.757539  0.371273 0.244858 1 10 1.000000
pyro_red
0  -3.435328 -12.674771 59.494682  -0.900837 -0.426722 -0.080015  0.407583 0.286426 1 10 1.000000
0  -2.693625 -14.013876 58.285816  -0.817077 -0.503053 -0.281644  0.393811 0.298921 1 10 1.000000
0  -3.154927 -13.335458 59.861286  -0.900836 -0.426722 -0.080015  0.407587 0.298953 1 10 1.000000
pyro_red
0  -3.435328 -12.674771 59.494682  -0.900837 -0.426722 -0.080015  0.407583 0.286426 1 10 1.000000
0  -2.974028 -13.353189 57.919216  -0.817077 -0.503053 -0.281643  0.393811 0.286443 1 10 1.000000
0  -2.693625 -14.013876 58.285816  -0.817077 -0.503053 -0.281644  0.393811 0.298921 1 10 1.000000
pyro_red
0  -2.974028 -13.353189 57.919216  -0.817077 -0.503053 -0.281643  0.393811 0.286443 1 10 1.000000
0  0.794086 -14.841902 54.125923  -0.863829 -0.468873 -0.184279  0.351227 0.298921 1 10 1.000000
0  -2.693625 -14.013876 58.285816  -0.817077 -0.503053 -0.281644  0.393811 0.298921 1 10 1.000000
pyro_red
0  -2.974028 -13.353189 57.919216  -0.817077 -0.503053 -0.281643  0.393811 0.286443 1 10 1.000000
0  0.513684 -14.181217 53.759319  -0.863829 -0.468873 -0.184277  0.351227 0.286443 1 10 1.000000
0  0.794086 -14.841902 54.125923  -0.863829 -0.468873 -0.184279  0.351227 0.298921 1 10 1.000000
pyro_red
0  0.513684 -14.181217 53.759319  -0.863829 -0.468873 -0.184277  0.351227 0.286443 1 10 1.000000
0  0.847579 -15.336869 53.192989  -0.936157 -0.329964 0.121385  0.343026 0.298921 1 10 1.000000
0  0.794086 -14.841902 54.125923  -0.863829 -0.468873 -0.184279  0.351227 0.298921 1 10 1.000000
pyro_red
0  0.513684 -14.181217 53.759319  -0.863829 -0.468873 -0.184277  0.351227 0.286443 1 10 1.000000
0  0.567175 -14.676184 52.826385  -0.936156 -0.329964 0.121387  0.343026 0.286443 1 10 1.000000
0  0.847579 -15.336869 53.192989  -0.936157 -0.329964 0.121385  0.343026 0.298921 1 10 1.000000
pyro_red
0  0.598971 -10.148767 62.399837  0.635135 -0.150789 -0.757540  0.363451 0.244858 1 9 1.000000
0  0.155727 -11.389200 62.275124  0.635132 -0.150789 -0.757542  0.371273 0.232862 1 9 1.000000
0  -0.124676 -10.728514 61.908520  0.635125 -0.150790 -0.757548  0.371273 0.244858 1 9 1.000000
pyro_red
0  0.598971 -10.148767 62.399837  0.635135 -0.150789 -0.757540  0.363451 0.244858 1 9 1.000000
0  0.879374 -10.809454 62.766441  0.635142 -0.150788 -0.757534  0.363451 0.232862 1 9 1.000000
0  0.155727 -11.389200 62.275124  0.635132 -0.150789 -0.757542  0.371273 0.232862 1 9 1.000000
pyro_red
0  3.770062 -7.403223 65.971436  -0.635134 0.150787 0.757541  0.422326 0.289516 1 8 1.000000
0  3.739705 -8.091540 66.082993  -0.635132 0.150787 0.757542  0.419605 0.298954 1 8 1.000000
0  3.910263 -7.733566 66.154739  -0.635135 0.150788 0.757540  0.422330 0.295803 1 8 1.000000
pyro_red
0  3.770062 -7.403223 65.971436  -0.635134 0.150787 0.757541  0.422326 0.289516 1 8 1.000000
0  3.459303 -7.430854 65.716393  -0.635132 0.150787 0.757543  0.419597 0.286378 1 8 1.000000
0  3.739705 -8.091540 66.082993  -0.635132 0.150787 0.757542  0.419605 0.298954 1 8 1.000000
pyro_red
0  2.398878 -8.280409 64.996422  -0.635132 0.150786 0.757542  0.407583 0.286426 1 8 1.000000
0  3.739705 -8.091540 66.082993  -0.635132 0.150787 0.757542  0.419605 0.298954 1 8 1.000000
0  3.459303 -7.430854 65.716393  -0.635132 0.150787 0.757543  0.419597 0.286378 1 8 1.000000
pyro_red
0  2.398878 -8.280409 64.996422  -0.635132 0.150786 0.757542  0.407583 0.286426 1 8 1.000000
0  2.679280 -8.941094 65.363022  -0.635133 0.150786 0.757541  0.407587 0.298953 1 8 1.000000
0  3.739705 -8.091540 66.082993  -0.635132 0.150787 0.757542  0.419605 0.298954 1 8 1.000000
pyro_red
0  4.824662 -7.653599 64.713600  0.689611 0.552463 0.468211  0.363600 0.278989 1 8 1.000000
0  3.910263 -7.733566 66.154739  0.689611 0.552463 0.468211  0.344145 0.269436 1 8 1.000000
0  4.964862 -7.983940 64.896889  0.689611 0.552463 0.468211  0.363567 0.269568 1 8 1.000000
pyro_red
0  4.824662 -7.653599 64.713600  0.689604 0.552476 0.468206  0.363600 0.278989 1 8 1.000000
0  3.770062 -7.403223 65.971436  0.689604 0.552476 0.468206  0.344097 0.278976 1 8 1.000000
0  3.910263 -7.733566 66.154739  0.689604 0.552476 0.468206  0.344145 0.269436 1 8 1.000000
pyro_red
0  4.553646 -8.534718 64.661751  -0.689606 -0.552474 -0.468206  0.353534 0.232862 1 8 1.000000
0  3.428353 -7.673444 65.302872  -0.689606 -0.552474 -0.468206  0.363451 0.244858 1 8 1.000000
0  4.273244 -7.874032 64.295151  -0.689606 -0.552474 -0.468206  0.353534 0.244858 1 8 1.000000
pyro_red
0  4.553646 -8.534718 64.661751  -0.689604 -0.552478 -0.468204  0.353534 0.232862 1 8 1.000000
0  3.708755 -8.334129 65.669479  -0.689604 -0.552478 -0.468204  0.363451 0.232862 1 8 1.000000
0  3.428353 -7.673444 65.302872  -0.689604 -0.552478 -0.468204  0.363451 0.244858 1 8 1.000000
pyro_red
0  3.428353 -7.673444 65.302872  0.635136 -0.150792 -0.757539  0.363451 0.244858 1 8 1.000000
0  2.985109 -8.913877 65.178162  0.635137 -0.150792 -0.757537  0.371273 0.232862 1 8 1.000000
0  2.704706 -8.253191 64.811554  0.635141 -0.150791 -0.757534  0.371273 0.244858 1 8 1.000000
pyro_red
0  3.428353 -7.673444 65.302872  0.635136 -0.150792 -0.757539  0.363451 0.244858 1 8 1.000000
0  3.708755 -8.334129 65.669479  0.635131 -0.150793 -0.757542  0.363451 0.232862 1 8 1.000000
0  2.985109 -8.913877 65.178162  0.635137 -0.150792 -0.757537  0.371273 0.232862 1 8 1.000000
pyro_red
0  6.909093 -10.326951 59.630215  0.904736 0.420778 0.066318  0.423941 0.232862 1 8 1.000000
0  6.681785 -10.942506 58.694729  0.916176 0.194351 -0.350499  0.432460 0.232862 1 8 1.000000
0  6.401382 -10.281820 58.328129  0.916176 0.194349 -0.350500  0.432460 0.244858 1 8 1.000000
pyro_red
0  6.909093 -10.326951 59.630215  0.904736 0.420778 0.066318  0.423941 0.232862 1 8 1.000000
0  6.401382 -10.281820 58.328129  0.916176 0.194349 -0.350500  0.432460 0.244858 1 8 1.000000
0  6.628691 -9.666265 59.263611  0.904737 0.420777 0.066317  0.423941 0.244858 1 8 1.000000
pyro_red
0  3.106570 -8.830069 63.464542  0.815854 0.503778 0.283884  0.382601 0.244858 1 8 1.000000
0  6.909093 -10.326951 59.630215  0.904736 0.420778 0.066318  0.423941 0.232862 1 8 1.000000
0  6.628691 -9.666265 59.263611  0.904737 0.420777 0.066317  0.423941 0.244858 1 8 1.000000
pyro_red
0  3.106570 -8.830069 63.464542  0.815854 0.503778 0.283884  0.382601 0.244858 1 8 1.000000
0  3.386972 -9.490756 63.831146  0.815854 0.503778 0.283884  0.382601 0.232862 1 8 1.000000
0  6.909093 -10.326951 59.630215  0.904736 0.420778 0.066318  0.423941 0.232862 1 8 1.000000
pyro_red
0  2.704706 -8.253191 64.811554  0.904729 0.420789 0.066344  0.371273 0.244858 1 8 1.000000
0  3.386972 -9.490756 63.831146  0.815854 0.503778 0.283884  0.382601 0.232862 1 8 1.000000
0  3.106570 -8.830069 63.464542  0.815854 0.503778 0.283884  0.382601 0.244858 1 8 1.000000
pyro_red
0  2.704706 -8.253191 64.811554  0.904729 0.420789 0.066344  0.371273 0.244858 1 8 1.000000
0  2.985109 -8.913877 65.178162  0.904741 0.420771 0.066301  0.371273 0.232862 1 8 1.000000
0  3.386972 -9.490756 63.831146  0.815854 0.503778 0.283884  0.382601 0.232862 1 8 1.000000
pyro_red
0  -1.320305 -12.075591 58.956802  -0.157588 0.934833 -0.318203  0.412403 0.267304 1 10 1.000000
0  -1.560963 -12.268395 58.793419  -0.347932 0.819768 -0.454889  0.412401 0.275439 1 10 1.000000
0  -2.405854 -12.067806 59.801132  -0.347924 0.819777 -0.454878  0.427994 0.275454 1 10 1.000000
pyro_red
0  -1.009546 -12.047960 59.211849  0.043492 0.986185 -0.159833  0.412394 0.258804 1 10 1.000000
0  -2.374903 -11.825216 60.214653  -0.224265 0.902525 -0.367632  0.431867 0.267323 1 10 1.000000
0  -2.064145 -11.797585 60.469700  0.043494 0.986185 -0.159833  0.431898 0.258790 1 10 1.000000
pyro_red
0  -1.009546 -12.047960 59.211849  0.043492 0.986185 -0.159833  0.412394 0.258804 1 10 1.000000
0  -1.320305 -12.075591 58.956802  -0.157588 0.934833 -0.318203  0.412403 0.267304 1 10 1.000000
0  -2.374903 -11.825216 60.214653  -0.224265 0.902525 -0.367632  0.431867 0.267323 1 10 1.000000
pyro_red
0  -1.320305 -12.075591 58.956802  -0.157588 0.934833 -0.318203  0.412403 0.267304 1 10 1.000000
0  -2.405854 -12.067806 59.801132  -0.347924 0.819777 -0.454878  0.427994 0.275454 1 10 1.000000
0  -2.374903 -11.825216 60.214653  -0.224265 0.902525 -0.367632  0.431867 0.267323 1 10 1.000000
pyro_red
0  -2.405854 -12.067806 59.801132  -0.347924 0.819777 -0.454878  0.427994 0.275454 1 10 1.000000
0  -3.435328 -12.674771 59.494682  -0.347930 0.819774 -0.454879  0.431858 0.303171 1 10 1.000000
0  -2.374903 -11.825216 60.214653  -0.224265 0.902525 -0.367632  0.431867 0.267323 1 10 1.000000
pyro_red
0  -2.405854 -12.067806 59.801132  -0.347924 0.819777 -0.454878  0.427994 0.275454 1 10 1.000000
0  -3.129501 -12.647552 59.309818  -0.347930 0.819773 -0.454880  0.427989 0.299918 1 10 1.000000
0  -3.435328 -12.674771 59.494682  -0.347930 0.819774 -0.454879  0.431858 0.303171 1 10 1.000000
pyro_red
0  -3.129501 -12.647552 59.309818  -0.347930 0.819773 -0.454880  0.427989 0.299918 1 10 1.000000
0  -2.974028 -13.353189 57.919216  -0.347924 0.819775 -0.454882  0.413230 0.321672 1 10 1.000000
0  -3.435328 -12.674771 59.494682  -0.347930 0.819774 -0.454879  0.431858 0.303171 1 10 1.000000
pyro_red
0  -3.129501 -12.647552 59.309818  -0.347930 0.819773 -0.454880  0.427989 0.299918 1 10 1.000000
0  -2.727637 -13.224432 57.962803  -0.347924 0.819775 -0.454882  0.412011 0.315575 1 10 1.000000
0  -2.974028 -13.353189 57.919216  -0.347924 0.819775 -0.454882  0.413230 0.321672 1 10 1.000000
pyro_red
0  -2.727637 -13.224432 57.962803  -0.347924 0.819775 -0.454882  0.412011 0.315575 1 10 1.000000
0  0.513684 -14.181217 53.759319  -0.347919 0.819779 -0.454879  0.348858 0.321610 1 10 1.000000
0  -2.974028 -13.353189 57.919216  -0.347924 0.819775 -0.454882  0.413230 0.321672 1 10 1.000000
pyro_red
0  -2.727637 -13.224432 57.962803  -0.347924 0.819775 -0.454882  0.412011 0.315575 1 10 1.000000
0  0.794484 -14.060629 53.761868  -0.347918 0.819779 -0.454879  0.347004 0.315513 1 10 1.000000
0  0.513684 -14.181217 53.759319  -0.347919 0.819779 -0.454879  0.348858 0.321610 1 10 1.000000
pyro_red
0  0.513684 -14.181217 53.759319  -0.347919 0.819779 -0.454879  0.348858 0.321610 1 10 1.000000
0  0.794484 -14.060629 53.761868  -0.347918 0.819779 -0.454879  0.347004 0.315513 1 10 1.000000
0  0.567175 -14.676184 52.826385  -0.347913 0.819780 -0.454881  0.339296 0.337299 1 10 1.000000
pyro_red
0  0.794484 -14.060629 53.761868  0.904736 0.420780 0.066315  0.423941 0.244858 1 10 1.000000
0  0.847579 -15.336869 53.192989  0.916174 0.194351 -0.350503  0.432460 0.232862 1 10 1.000000
0  0.567175 -14.676184 52.826385  0.916174 0.194351 -0.350504  0.432460 0.244858 1 10 1.000000
pyro_red
0  0.794484 -14.060629 53.761868  0.904736 0.420780 0.066315  0.423941 0.244858 1 10 1.000000
0  1.074886 -14.721313 54.128471  0.904736 0.420780 0.066316  0.423941 0.232862 1 10 1.000000
0  0.847579 -15.336869 53.192989  0.916174 0.194351 -0.350503  0.432460 0.232862 1 10 1.000000
pyro_red
0  -2.727637 -13.224432 57.962803  0.815853 0.503779 0.283884  0.382601 0.244858 1 10 1.000000
0  1.074886 -14.721313 54.128471  0.904736 0.420780 0.066316  0.423941 0.232862 1 10 1.000000
0  0.794484 -14.060629 53.761868  0.904736 0.420780 0.066315  0.423941 0.244858 1 10 1.000000
pyro_red
0  -2.727637 -13.224432 57.962803  0.815853 0.503779 0.283884  0.382601 0.244858 1 10 1.000000
0  -2.447235 -13.885118 58.329407  0.815853 0.503779 0.283884  0.382601 0.232862 1 10 1.000000
0  1.074886 -14.721313 54.128471  0.904736 0.420780 0.066316  0.423941 0.232862 1 10 1.000000
pyro_red
0  -3.129501 -12.647552 59.309818  0.904729 0.420790 0.066346  0.371273 0.244858 1 10 1.000000
0  -2.447235 -13.885118 58.329407  0.815853 0.503779 0.283884  0.382601 0.232862 1 10 1.000000
0  -2.727637 -13.224432 57.962803  0.815853 0.503779 0.283884  0.382601 0.244858 1 10 1.000000
pyro_red
0  -3.129501 -12.647552 59.309818  0.904729 0.420790 0.066346  0.371273 0.244858 1 10 1.000000
0  -2.849098 -13.308240 59.676422  0.904740 0.420772 0.066302  0.371273 0.232862 1 10 1.000000
0  -2.447235 -13.885118 58.329407  0.815853 0.503779 0.283884  0.382601 0.232862 1 10 1.000000
pyro_red
0  -1.039903 -12.736280 59.323421  0.514516 -0.648895 0.560543  0.363542 0.261080 1 10 1.000000
0  -2.125452 -12.728493 60.167736  0.347913 -0.819783 0.454877  0.348101 0.252836 1 10 1.000000
0  -1.280560 -12.929081 59.160011  0.347907 -0.819790 0.454868  0.363565 0.253012 1 10 1.000000
pyro_red
0  1.074886 -14.721313 54.128471  0.347929 -0.819774 0.454880  0.428520 0.213951 1 10 1.000000
0  0.794086 -14.841902 54.125923  0.347928 -0.819774 0.454880  0.426698 0.207885 1 10 1.000000
0  0.847579 -15.336869 53.192989  0.347934 -0.819773 0.454879  0.436221 0.192426 1 10 1.000000
pyro_red
0  -2.447235 -13.885118 58.329407  0.347920 -0.819778 0.454879  0.364055 0.213215 1 10 1.000000
0  0.794086 -14.841902 54.125923  0.347928 -0.819774 0.454880  0.426698 0.207885 1 10 1.000000
0  1.074886 -14.721313 54.128471  0.347929 -0.819774 0.454880  0.428520 0.213951 1 10 1.000000
pyro_red
0  -2.447235 -13.885118 58.329407  0.347920 -0.819778 0.454879  0.364055 0.213215 1 10 1.000000
0  -2.693625 -14.013876 58.285816  0.347920 -0.819778 0.454879  0.362863 0.207157 1 10 1.000000
0  0.794086 -14.841902 54.125923  0.347928 -0.819774 0.454880  0.426698 0.207885 1 10 1.000000
pyro_red
0  -2.849098 -13.308240 59.676422  0.347919 -0.819776 0.454883  0.348170 0.228576 1 10 1.000000
0  -2.693625 -14.013876 58.285816  0.347920 -0.819778 0.454879  0.362863 0.207157 1 10 1.000000
0  -2.447235 -13.885118 58.329407  0.347920 -0.819778 0.454879  0.364055 0.213215 1 10 1.000000
pyro_red
0  -2.849098 -13.308240 59.676422  0.347919 -0.819776 0.454883  0.348170 0.228576 1 10 1.000000
0  -3.154927 -13.335458 59.861286  0.347918 -0.819777 0.454882  0.344341 0.225310 1 10 1.000000
0  -2.693625 -14.013876 58.285816  0.347920 -0.819778 0.454879  0.362863 0.207157 1 10 1.000000
pyro_red
0  -2.125452 -12.728493 60.167736  0.347913 -0.819783 0.454877  0.348101 0.252836 1 10 1.000000
0  -3.154927 -13.335458 59.861286  0.347918 -0.819777 0.454882  0.344341 0.225310 1 10 1.000000
0  -2.849098 -13.308240 59.676422  0.347919 -0.819776 0.454883  0.348170 0.228576 1 10 1.000000
pyro_red
0  -2.125452 -12.728493 60.167736  0.347913 -0.819783 0.454877  0.348101 0.252836 1 10 1.000000
0  -2.094501 -12.485903 60.581257  0.461246 -0.712642 0.528577  0.344240 0.260860 1 10 1.000000
0  -3.154927 -13.335458 59.861286  0.347918 -0.819777 0.454882  0.344341 0.225310 1 10 1.000000
pyro_red
0  -1.039903 -12.736280 59.323421  0.514516 -0.648895 0.560543  0.363542 0.261080 1 10 1.000000
0  -2.094501 -12.485903 60.581257  0.461246 -0.712642 0.528577  0.344240 0.260860 1 10 1.000000
0  -2.125452 -12.728493 60.167736  0.347913 -0.819783 0.454877  0.348101 0.252836 1 10 1.000000
pyro_red
0  -0.869345 -12.378313 59.395206  0.646079 -0.433775 0.628029  0.363567 0.269568 1 10 1.000000
0  -2.094501 -12.485903 60.581257  0.461246 -0.712642 0.528577  0.344240 0.260860 1 10 1.000000
0  -1.039903 -12.736280 59.323421  0.514516 -0.648895 0.560543  0.363542 0.261080 1 10 1.000000
pyro_red
0  -0.869345 -12.378313 59.395206  0.646095 -0.433705 0.628061  0.363567 0.269568 1 10 1.000000
0  -1.923944 -12.127929 60.653000  0.646095 -0.433705 0.628061  0.344145 0.269436 1 10 1.000000
0  -2.094501 -12.485903 60.581257  0.461227 -0.712645 0.528589  0.344240 0.260860 1 10 1.000000
pyro_red
0  1.684520 -10.156551 61.555508  -0.157584 0.934834 -0.318202  0.412403 0.267304 1 9 1.000000
0  1.443862 -10.349354 61.392113  -0.347920 0.819778 -0.454880  0.412401 0.275439 1 9 1.000000
0  0.598971 -10.148767 62.399837  -0.347923 0.819777 -0.454879  0.427994 0.275454 1 9 1.000000
pyro_red
0  1.684520 -10.156551 61.555508  -0.157584 0.934834 -0.318202  0.412403 0.267304 1 9 1.000000
0  0.940680 -9.878546 63.068401  0.043494 0.986185 -0.159838  0.431898 0.258790 1 9 1.000000
0  1.995280 -10.128921 61.810555  0.043492 0.986185 -0.159839  0.412394 0.258804 1 9 1.000000
pyro_red
0  1.684520 -10.156551 61.555508  -0.157584 0.934834 -0.318202  0.412403 0.267304 1 9 1.000000
0  0.629921 -9.906177 62.813358  -0.224233 0.902527 -0.367648  0.431867 0.267323 1 9 1.000000
0  0.940680 -9.878546 63.068401  0.043494 0.986185 -0.159838  0.431898 0.258790 1 9 1.000000
pyro_red
0  1.684520 -10.156551 61.555508  -0.157584 0.934834 -0.318202  0.412403 0.267304 1 9 1.000000
0  0.598971 -10.148767 62.399837  -0.347923 0.819777 -0.454879  0.427994 0.275454 1 9 1.000000
0  0.629921 -9.906177 62.813358  -0.224233 0.902527 -0.367648  0.431867 0.267323 1 9 1.000000
pyro_red
0  0.598971 -10.148767 62.399837  -0.347923 0.819777 -0.454879  0.427994 0.275454 1 9 1.000000
0  -0.430504 -10.755732 62.093388  -0.347919 0.819779 -0.454879  0.431858 0.303171 1 9 1.000000
0  0.629921 -9.906177 62.813358  -0.224233 0.902527 -0.367648  0.431867 0.267323 1 9 1.000000
pyro_red
0  0.598971 -10.148767 62.399837  -0.347923 0.819777 -0.454879  0.427994 0.275454 1 9 1.000000
0  -0.124676 -10.728514 61.908520  -0.347919 0.819779 -0.454879  0.427989 0.299918 1 9 1.000000
0  -0.430504 -10.755732 62.093388  -0.347919 0.819779 -0.454879  0.431858 0.303171 1 9 1.000000
pyro_red
0  -0.124676 -10.728514 61.908520  -0.347919 0.819779 -0.454879  0.427989 0.299918 1 9 1.000000
0  0.030797 -11.434149 60.517918  -0.347921 0.819778 -0.454879  0.413230 0.321672 1 9 1.000000
0  -0.430504 -10.755732 62.093388  -0.347919 0.819779 -0.454879  0.431858 0.303171 1 9 1.000000
pyro_red
0  -0.124676 -10.728514 61.908520  -0.347919 0.819779 -0.454879  0.427989 0.299918 1 9 1.000000
0  0.277188 -11.305391 60.561508  -0.347920 0.819778 -0.454879  0.412011 0.315575 1 9 1.000000
0  0.030797 -11.434149 60.517918  -0.347921 0.819778 -0.454879  0.413230 0.321672 1 9 1.000000
pyro_red
0  0.277188 -11.305391 60.561508  -0.347920 0.819778 -0.454879  0.412011 0.315575 1 9 1.000000
0  3.518509 -12.262177 56.358028  -0.347927 0.819776 -0.454878  0.348858 0.321610 1 9 1.000000
0  0.030797 -11.434149 60.517918  -0.347921 0.819778 -0.454879  0.413230 0.321672 1 9 1.000000
pyro_red
0  0.277188 -11.305391 60.561508  -0.347920 0.819778 -0.454879  0.412011 0.315575 1 9 1.000000
0  3.799309 -12.141589 56.360577  -0.347928 0.819776 -0.454878  0.347004 0.315513 1 9 1.000000
0  3.518509 -12.262177 56.358028  -0.347927 0.819776 -0.454878  0.348858 0.321610 1 9 1.000000
pyro_red
0  3.518509 -12.262177 56.358028  -0.347927 0.819776 -0.454878  0.348858 0.321610 1 9 1.000000
0  3.799309 -12.141589 56.360577  -0.347928 0.819776 -0.454878  0.347004 0.315513 1 9 1.000000
0  3.572001 -12.757142 55.425091  -0.347933 0.819775 -0.454876  0.339296 0.337299 1 9 1.000000
pyro_red
0  2.135482 -10.459266 61.993870  0.689596 0.552487 0.468204  0.363567 0.269568 1 9 1.000000
0  0.940680 -9.878546 63.068401  0.689601 0.552477 0.468208  0.344097 0.278976 1 9 1.000000
0  1.080881 -10.208889 63.251705  0.689602 0.552475 0.468209  0.344145 0.269436 1 9 1.000000
pyro_red
0  2.135482 -10.459266 61.993870  0.689596 0.552487 0.468204  0.363567 0.269568 1 9 1.000000
0  1.995280 -10.128921 61.810555  0.689595 0.552489 0.468203  0.363600 0.278989 1 9 1.000000
0  0.940680 -9.878546 63.068401  0.689601 0.552477 0.468208  0.344097 0.278976 1 9 1.000000
pyro_red
0  -0.150102 -11.416418 62.459991  -0.635133 0.150790 0.757541  0.407587 0.298953 1 9 1.000000
0  0.629921 -9.906177 62.813358  -0.635133 0.150790 0.757541  0.419597 0.286378 1 9 1.000000
0  -0.430504 -10.755732 62.093388  -0.635133 0.150790 0.757541  0.407583 0.286426 1 9 1.000000
pyro_red
0  -0.150102 -11.416418 62.459991  -0.635133 0.150790 0.757541  0.407587 0.298953 1 9 1.000000
0  0.910324 -10.566863 63.179962  -0.635140 0.150788 0.757535  0.419605 0.298954 1 9 1.000000
0  0.629921 -9.906177 62.813358  -0.635133 0.150790 0.757541  0.419597 0.286378 1 9 1.000000
pyro_red
0  1.080881 -10.208889 63.251705  -0.635143 0.150789 0.757533  0.422330 0.295803 1 9 1.000000
0  0.629921 -9.906177 62.813358  -0.635133 0.150790 0.757541  0.419597 0.286378 1 9 1.000000
0  0.910324 -10.566863 63.179962  -0.635140 0.150788 0.757535  0.419605 0.298954 1 9 1.000000
pyro_red
0  1.080881 -10.208889 63.251705  -0.635143 0.150789 0.757533  0.422330 0.295803 1 9 1.000000
0  0.940680 -9.878546 63.068401  -0.635116 0.150798 0.757554  0.422326 0.289516 1 9 1.000000
0  0.629921 -9.906177 62.813358  -0.635133 0.150790 0.757541  0.419597 0.286378 1 9 1.000000
pyro_red
0  1.964923 -10.817239 61.922119  0.514543 -0.648862 0.560556  0.363542 0.261080 1 9 1.000000
0  0.879374 -10.809454 62.766441  0.347920 -0.819777 0.454881  0.348101 0.252836 1 9 1.000000
0  1.724265 -11.010042 61.758717  0.347920 -0.819781 0.454874  0.363565 0.253012 1 9 1.000000
pyro_red
0  4.079712 -12.802275 56.727177  0.347921 -0.819777 0.454880  0.428520 0.213951 1 9 1.000000
0  3.798911 -12.922863 56.724632  0.347921 -0.819777 0.454880  0.426698 0.207885 1 9 1.000000
0  3.852403 -13.417830 55.791695  0.347922 -0.819778 0.454878  0.436221 0.192426 1 9 1.000000
pyro_red
0  0.557591 -11.966078 60.928112  0.347923 -0.819779 0.454876  0.364055 0.213215 1 9 1.000000
0  3.798911 -12.922863 56.724632  0.347921 -0.819777 0.454880  0.426698 0.207885 1 9 1.000000
0  4.079712 -12.802275 56.727177  0.347921 -0.819777 0.454880  0.428520 0.213951 1 9 1.000000
pyro_red
0  0.557591 -11.966078 60.928112  0.347923 -0.819779 0.454876  0.364055 0.213215 1 9 1.000000
0  0.311199 -12.094834 60.884521  0.347924 -0.819778 0.454877  0.362863 0.207157 1 9 1.000000
0  3.798911 -12.922863 56.724632  0.347921 -0.819777 0.454880  0.426698 0.207885 1 9 1.000000
pyro_red
0  0.155727 -11.389200 62.275124  0.347927 -0.819776 0.454878  0.348170 0.228576 1 9 1.000000
0  0.311199 -12.094834 60.884521  0.347924 -0.819778 0.454877  0.362863 0.207157 1 9 1.000000
0  0.557591 -11.966078 60.928112  0.347923 -0.819779 0.454876  0.364055 0.213215 1 9 1.000000
pyro_red
0  0.155727 -11.389200 62.275124  0.347927 -0.819776 0.454878  0.348170 0.228576 1 9 1.000000
0  -0.150102 -11.416418 62.459991  0.347927 -0.819776 0.454878  0.344341 0.225310 1 9 1.000000
0  0.311199 -12.094834 60.884521  0.347924 -0.819778 0.454877  0.362863 0.207157 1 9 1.000000
pyro_red
0  0.879374 -10.809454 62.766441  0.347920 -0.819777 0.454881  0.348101 0.252836 1 9 1.000000
0  -0.150102 -11.416418 62.459991  0.347927 -0.819776 0.454878  0.344341 0.225310 1 9 1.000000
0  0.155727 -11.389200 62.275124  0.347927 -0.819776 0.454878  0.348170 0.228576 1 9 1.000000
pyro_red
0  0.879374 -10.809454 62.766441  0.347920 -0.819777 0.454881  0.348101 0.252836 1 9 1.000000
0  0.910324 -10.566863 63.179962  0.461257 -0.712631 0.528582  0.344240 0.260860 1 9 1.000000
0  -0.150102 -11.416418 62.459991  0.347927 -0.819776 0.454878  0.344341 0.225310 1 9 1.000000
pyro_red
0  1.964923 -10.817239 61.922119  0.514543 -0.648862 0.560556  0.363542 0.261080 1 9 1.000000
0  0.910324 -10.566863 63.179962  0.461257 -0.712631 0.528582  0.344240 0.260860 1 9 1.000000
0  0.879374 -10.809454 62.766441  0.347920 -0.819777 0.454881  0.348101 0.252836 1 9 1.000000
pyro_red
0  2.135482 -10.459266 61.993870  0.646106 -0.433723 0.628038  0.363567 0.269568 1 9 1.000000
0  0.910324 -10.566863 63.179962  0.461257 -0.712631 0.528582  0.344240 0.260860 1 9 1.000000
0  1.964923 -10.817239 61.922119  0.514543 -0.648862 0.560556  0.363542 0.261080 1 9 1.000000
pyro_red
0  2.135482 -10.459266 61.993870  0.646112 -0.433708 0.628043  0.363567 0.269568 1 9 1.000000
0  1.080881 -10.208889 63.251705  0.646112 -0.433708 0.628043  0.344145 0.269436 1 9 1.000000
0  0.910324 -10.566863 63.179962  0.461272 -0.712615 0.528592  0.344240 0.260860 1 9 1.000000
pyro_red
0  6.628293 -10.447540 59.627666  -0.863829 -0.468871 -0.184280  0.351227 0.298921 1 8 1.000000
0  6.401382 -10.281820 58.328129  -0.936158 -0.329961 0.121383  0.343026 0.286443 1 8 1.000000
0  6.681785 -10.942506 58.694729  -0.936157 -0.329962 0.121383  0.343026 0.298921 1 8 1.000000
pyro_red
0  6.628293 -10.447540 59.627666  -0.863829 -0.468871 -0.184280  0.351227 0.298921 1 8 1.000000
0  6.347890 -9.786853 59.261063  -0.863829 -0.468871 -0.184280  0.351227 0.286443 1 8 1.000000
0  6.401382 -10.281820 58.328129  -0.936158 -0.329961 0.121383  0.343026 0.286443 1 8 1.000000
pyro_red
0  3.140581 -9.619513 63.787556  -0.817076 -0.503054 -0.281644  0.393811 0.298921 1 8 1.000000
0  6.347890 -9.786853 59.261063  -0.863829 -0.468871 -0.184280  0.351227 0.286443 1 8 1.000000
0  6.628293 -10.447540 59.627666  -0.863829 -0.468871 -0.184280  0.351227 0.298921 1 8 1.000000
pyro_red
0  3.140581 -9.619513 63.787556  -0.817076 -0.503054 -0.281644  0.393811 0.298921 1 8 1.000000
0  2.860179 -8.958827 63.420956  -0.817076 -0.503054 -0.281643  0.393811 0.286443 1 8 1.000000
0  6.347890 -9.786853 59.261063  -0.863829 -0.468871 -0.184280  0.351227 0.286443 1 8 1.000000
pyro_red
0  2.679280 -8.941094 65.363022  -0.900835 -0.426724 -0.080015  0.407587 0.298953 1 8 1.000000
0  2.860179 -8.958827 63.420956  -0.817076 -0.503054 -0.281643  0.393811 0.286443 1 8 1.000000
0  3.140581 -9.619513 63.787556  -0.817076 -0.503054 -0.281644  0.393811 0.298921 1 8 1.000000
pyro_red
0  2.679280 -8.941094 65.363022  -0.900835 -0.426724 -0.080015  0.407587 0.298953 1 8 1.000000
0  2.398878 -8.280409 64.996422  -0.900835 -0.426725 -0.080015  0.407583 0.286426 1 8 1.000000
0  2.860179 -8.958827 63.420956  -0.817076 -0.503054 -0.281643  0.393811 0.286443 1 8 1.000000
pyro_red
0  -0.430504 -10.755732 62.093388  -0.900836 -0.426722 -0.080014  0.407583 0.286426 1 9 1.000000
0  0.311199 -12.094834 60.884521  -0.817076 -0.503055 -0.281643  0.393811 0.298921 1 9 1.000000
0  -0.150102 -11.416418 62.459991  -0.900836 -0.426722 -0.080014  0.407587 0.298953 1 9 1.000000
pyro_red
0  -0.430504 -10.755732 62.093388  -0.900836 -0.426722 -0.080014  0.407583 0.286426 1 9 1.000000
0  0.030797 -11.434149 60.517918  -0.817076 -0.503055 -0.281644  0.393811 0.286443 1 9 1.000000
0  0.311199 -12.094834 60.884521  -0.817076 -0.503055 -0.281643  0.393811 0.298921 1 9 1.000000
pyro_red
0  0.030797 -11.434149 60.517918  -0.817076 -0.503055 -0.281644  0.393811 0.286443 1 9 1.000000
0  3.798911 -12.922863 56.724632  -0.863829 -0.468871 -0.184279  0.351227 0.298921 1 9 1.000000
0  0.311199 -12.094834 60.884521  -0.817076 -0.503055 -0.281643  0.393811 0.298921 1 9 1.000000
pyro_red
0  0.030797 -11.434149 60.517918  -0.817076 -0.503055 -0.281644  0.393811 0.286443 1 9 1.000000
0  3.518509 -12.262177 56.358028  -0.863829 -0.468872 -0.184278  0.351227 0.286443 1 9 1.000000
0  3.798911 -12.922863 56.724632  -0.863829 -0.468871 -0.184279  0.351227 0.298921 1 9 1.000000
pyro_red
0  3.518509 -12.262177 56.358028  -0.863829 -0.468872 -0.184278  0.351227 0.286443 1 9 1.000000
0  3.852403 -13.417830 55.791695  -0.936158 -0.329962 0.121383  0.343026 0.298921 1 9 1.000000
0  3.798911 -12.922863 56.724632  -0.863829 -0.468871 -0.184279  0.351227 0.298921 1 9 1.000000
pyro_red
0  3.518509 -12.262177 56.358028  -0.863829 -0.468872 -0.184278  0.351227 0.286443 1 9 1.000000
0  3.572001 -12.757142 55.425091  -0.936157 -0.329964 0.121383  0.343026 0.286443 1 9 1.000000
0  3.852403 -13.417830 55.791695  -0.936158 -0.329962 0.121383  0.343026 0.298921 1 9 1.000000
pyro_red
0  0.155727 -11.389200 62.275124  0.904740 0.420773 0.066303  0.371273 0.232862 1 9 1.000000
0  0.277188 -11.305391 60.561508  0.815852 0.503781 0.283884  0.382601 0.244858 1 9 1.000000
0  -0.124676 -10.728514 61.908520  0.904729 0.420790 0.066346  0.371273 0.244858 1 9 1.000000
pyro_red
0  0.155727 -11.389200 62.275124  0.904740 0.420773 0.066303  0.371273 0.232862 1 9 1.000000
0  0.557591 -11.966078 60.928112  0.815852 0.503781 0.283884  0.382601 0.232862 1 9 1.000000
0  0.277188 -11.305391 60.561508  0.815852 0.503781 0.283884  0.382601 0.244858 1 9 1.000000
pyro_red
0  0.557591 -11.966078 60.928112  0.815852 0.503781 0.283884  0.382601 0.232862 1 9 1.000000
0  3.799309 -12.141589 56.360577  0.904736 0.420779 0.066319  0.423941 0.244858 1 9 1.000000
0  0.277188 -11.305391 60.561508  0.815852 0.503781 0.283884  0.382601 0.244858 1 9 1.000000
pyro_red
0  0.557591 -11.966078 60.928112  0.815852 0.503781 0.283884  0.382601 0.232862 1 9 1.000000
0  4.079712 -12.802275 56.727177  0.904737 0.420777 0.066319  0.423941 0.232862 1 9 1.000000
0  3.799309 -12.141589 56.360577  0.904736 0.420779 0.066319  0.423941 0.244858 1 9 1.000000
pyro_red
0  4.079712 -12.802275 56.727177  0.904737 0.420777 0.066319  0.423941 0.232862 1 9 1.000000
0  3.572001 -12.757142 55.425091  0.916177 0.194347 -0.350498  0.432460 0.244858 1 9 1.000000
0  3.799309 -12.141589 56.360577  0.904736 0.420779 0.066319  0.423941 0.244858 1 9 1.000000
pyro_red
0  4.079712 -12.802275 56.727177  0.904737 0.420777 0.066319  0.423941 0.232862 1 9 1.000000
0  3.852403 -13.417830 55.791695  0.916178 0.194346 -0.350497  0.432460 0.232862 1 9 1.000000
0  3.572001 -12.757142 55.425091  0.916177 0.194347 -0.350498  0.432460 0.244858 1 9 1.000000
pyro_red
0  4.824662 -7.653599 64.713600  0.043497 0.986185 -0.159832  0.412394 0.258804 1 8 1.000000
0  3.459303 -7.430854 65.716393  -0.224255 0.902518 -0.367656  0.431867 0.267323 1 8 1.000000
0  3.770062 -7.403223 65.971436  0.043487 0.986185 -0.159836  0.431898 0.258790 1 8 1.000000
pyro_red
0  4.824662 -7.653599 64.713600  0.043497 0.986185 -0.159832  0.412394 0.258804 1 8 1.000000
0  4.513902 -7.681229 64.458542  -0.157584 0.934835 -0.318200  0.412403 0.267304 1 8 1.000000
0  3.459303 -7.430854 65.716393  -0.224255 0.902518 -0.367656  0.431867 0.267323 1 8 1.000000
pyro_red
0  4.513902 -7.681229 64.458542  -0.157584 0.934835 -0.318200  0.412403 0.267304 1 8 1.000000
0  3.428353 -7.673444 65.302872  -0.347934 0.819773 -0.454877  0.427994 0.275454 1 8 1.000000
0  3.459303 -7.430854 65.716393  -0.224255 0.902518 -0.367656  0.431867 0.267323 1 8 1.000000
pyro_red
0  3.428353 -7.673444 65.302872  -0.347934 0.819773 -0.454877  0.427994 0.275454 1 8 1.000000
0  2.398878 -8.280409 64.996422  -0.347921 0.819777 -0.454880  0.431858 0.303171 1 8 1.000000
0  3.459303 -7.430854 65.716393  -0.224255 0.902518 -0.367656  0.431867 0.267323 1 8 1.000000
pyro_red
0  3.428353 -7.673444 65.302872  -0.347934 0.819773 -0.454877  0.427994 0.275454 1 8 1.000000
0  2.704706 -8.253191 64.811554  -0.347918 0.819778 -0.454881  0.427989 0.299918 1 8 1.000000
0  2.398878 -8.280409 64.996422  -0.347921 0.819777 -0.454880  0.431858 0.303171 1 8 1.000000
pyro_red
0  2.704706 -8.253191 64.811554  -0.347918 0.819778 -0.454881  0.427989 0.299918 1 8 1.000000
0  2.860179 -8.958827 63.420956  -0.347935 0.819771 -0.454881  0.413230 0.321672 1 8 1.000000
0  2.398878 -8.280409 64.996422  -0.347921 0.819777 -0.454880  0.431858 0.303171 1 8 1.000000
pyro_red
0  2.704706 -8.253191 64.811554  -0.347918 0.819778 -0.454881  0.427989 0.299918 1 8 1.000000
0  3.106570 -8.830069 63.464542  -0.347935 0.819771 -0.454882  0.412011 0.315575 1 8 1.000000
0  2.860179 -8.958827 63.420956  -0.347935 0.819771 -0.454881  0.413230 0.321672 1 8 1.000000
pyro_red
0  3.106570 -8.830069 63.464542  -0.347935 0.819771 -0.454882  0.412011 0.315575 1 8 1.000000
0  6.347890 -9.786853 59.261063  -0.347917 0.819780 -0.454878  0.348858 0.321610 1 8 1.000000
0  2.860179 -8.958827 63.420956  -0.347935 0.819771 -0.454881  0.413230 0.321672 1 8 1.000000
pyro_red
0  3.106570 -8.830069 63.464542  -0.347935 0.819771 -0.454882  0.412011 0.315575 1 8 1.000000
0  6.628691 -9.666265 59.263611  -0.347916 0.819780 -0.454879  0.347004 0.315513 1 8 1.000000
0  6.347890 -9.786853 59.261063  -0.347917 0.819780 -0.454878  0.348858 0.321610 1 8 1.000000
pyro_red
0  6.347890 -9.786853 59.261063  -0.347917 0.819780 -0.454878  0.348858 0.321610 1 8 1.000000
0  6.628691 -9.666265 59.263611  -0.347916 0.819780 -0.454879  0.347004 0.315513 1 8 1.000000
0  6.401382 -10.281820 58.328129  -0.347911 0.819780 -0.454882  0.339296 0.337299 1 8 1.000000
pyro_red
0  4.513902 -7.681229 64.458542  -0.157584 0.934835 -0.318200  0.412403 0.267304 1 8 1.000000
0  4.273244 -7.874032 64.295151  -0.347927 0.819775 -0.454881  0.412401 0.275439 1 8 1.000000
0  3.428353 -7.673444 65.302872  -0.347934 0.819773 -0.454877  0.427994 0.275454 1 8 1.000000
pyro_red
0  6.909093 -10.326951 59.630215  0.347922 -0.819776 0.454881  0.428520 0.213951 1 8 1.000000
0  6.628293 -10.447540 59.627666  0.347922 -0.819776 0.454881  0.426698 0.207885 1 8 1.000000
0  6.681785 -10.942506 58.694729  0.347923 -0.819777 0.454879  0.436221 0.192426 1 8 1.000000
pyro_red
0  3.386972 -9.490756 63.831146  0.347910 -0.819782 0.454880  0.364055 0.213215 1 8 1.000000
0  6.628293 -10.447540 59.627666  0.347922 -0.819776 0.454881  0.426698 0.207885 1 8 1.000000
0  6.909093 -10.326951 59.630215  0.347922 -0.819776 0.454881  0.428520 0.213951 1 8 1.000000
pyro_red
0  3.386972 -9.490756 63.831146  0.347910 -0.819782 0.454880  0.364055 0.213215 1 8 1.000000
0  3.140581 -9.619513 63.787556  0.347910 -0.819782 0.454880  0.362863 0.207157 1 8 1.000000
0  6.628293 -10.447540 59.627666  0.347922 -0.819776 0.454881  0.426698 0.207885 1 8 1.000000
pyro_red
0  2.985109 -8.913877 65.178162  0.347919 -0.819776 0.454883  0.348170 0.228576 1 8 1.000000
0  3.140581 -9.619513 63.787556  0.347910 -0.819782 0.454880  0.362863 0.207157 1 8 1.000000
0  3.386972 -9.490756 63.831146  0.347910 -0.819782 0.454880  0.364055 0.213215 1 8 1.000000
pyro_red
0  2.985109 -8.913877 65.178162  0.347919 -0.819776 0.454883  0.348170 0.228576 1 8 1.000000
0  2.679280 -8.941094 65.363022  0.347920 -0.819776 0.454883  0.344341 0.225310 1 8 1.000000
0  3.140581 -9.619513 63.787556  0.347910 -0.819782 0.454880  0.362863 0.207157 1 8 1.000000
pyro_red
0  3.708755 -8.334129 65.669479  0.347921 -0.819776 0.454883  0.348101 0.252836 1 8 1.000000
0  2.679280 -8.941094 65.363022  0.347920 -0.819776 0.454883  0.344341 0.225310 1 8 1.000000
0  2.985109 -8.913877 65.178162  0.347919 -0.819776 0.454883  0.348170 0.228576 1 8 1.000000
pyro_red
0  3.708755 -8.334129 65.669479  0.347921 -0.819776 0.454883  0.348101 0.252836 1 8 1.000000
0  3.739705 -8.091540 66.082993  0.461259 -0.712630 0.528582  0.344240 0.260860 1 8 1.000000
0  2.679280 -8.941094 65.363022  0.347920 -0.819776 0.454883  0.344341 0.225310 1 8 1.000000
pyro_red
0  4.794304 -8.341914 64.825142  0.514553 -0.648853 0.560558  0.363542 0.261080 1 8 1.000000
0  3.739705 -8.091540 66.082993  0.461259 -0.712630 0.528582  0.344240 0.260860 1 8 1.000000
0  3.708755 -8.334129 65.669479  0.347921 -0.819776 0.454883  0.348101 0.252836 1 8 1.000000
pyro_red
0  4.964862 -7.983940 64.896889  0.646112 -0.433716 0.628036  0.363567 0.269568 1 8 1.000000
0  3.739705 -8.091540 66.082993  0.461259 -0.712630 0.528582  0.344240 0.260860 1 8 1.000000
0  4.794304 -8.341914 64.825142  0.514553 -0.648853 0.560558  0.363542 0.261080 1 8 1.000000
pyro_red
0  4.964862 -7.983940 64.896889  0.646107 -0.433716 0.628041  0.363567 0.269568 1 8 1.000000
0  3.910263 -7.733566 66.154739  0.646107 -0.433716 0.628041  0.344145 0.269436 1 8 1.000000
0  3.739705 -8.091540 66.082993  0.461265 -0.712622 0.528587  0.344240 0.260860 1 8 1.000000
pyro_red
0  4.794304 -8.341914 64.825142  0.514553 -0.648853 0.560558  0.363542 0.261080 1 8 1.000000
0  3.708755 -8.334129 65.669479  0.347921 -0.819776 0.454883  0.348101 0.252836 1 8 1.000000
0  4.553646 -8.534718 64.661751  0.347930 -0.819773 0.454881  0.363565 0.253012 1 8 1.000000
pyro_red
0  4.431068 -13.223287 55.012352  0.759591 0.082760 0.645114  0.327231 0.374069 1 10 1.000000
0  -0.486400 -11.331085 60.393314  0.689608 0.552440 0.468242  0.333434 0.494821 1 10 1.000000
0  -0.323147 -12.094460 60.682140  0.759598 0.082768 0.645105  0.327226 0.494828 1 10 1.000000
pyro_red
0  4.431068 -13.223287 55.012352  0.759591 0.082760 0.645114  0.327231 0.374069 1 10 1.000000
0  4.267763 -12.459783 54.722885  0.689611 0.552457 0.468217  0.333440 0.374078 1 10 1.000000
0  -0.486400 -11.331085 60.393314  0.689608 0.552440 0.468242  0.333434 0.494821 1 10 1.000000
pyro_red
0  4.267763 -12.459783 54.722885  0.689611 0.552457 0.468217  0.333440 0.374078 1 10 1.000000
0  -0.894871 -10.766253 59.938416  0.410481 0.894584 0.176706  0.339720 0.494810 1 10 1.000000
0  -0.486400 -11.331085 60.393314  0.689608 0.552440 0.468242  0.333434 0.494821 1 10 1.000000
pyro_red
0  4.267763 -12.459783 54.722885  0.689611 0.552457 0.468217  0.333440 0.374078 1 10 1.000000
0  3.859293 -11.894952 54.267986  0.410449 0.894597 0.176715  0.339727 0.374093 1 10 1.000000
0  -0.894871 -10.766253 59.938416  0.410481 0.894584 0.176706  0.339720 0.494810 1 10 1.000000
pyro_red
0  3.239138 -11.779232 53.725006  0.043539 0.986190 -0.159792  0.346013 0.374108 1 10 1.000000
0  -0.894871 -10.766253 59.938416  0.410481 0.894584 0.176706  0.339720 0.494810 1 10 1.000000
0  3.859293 -11.894952 54.267986  0.410449 0.894597 0.176715  0.339727 0.374093 1 10 1.000000
pyro_red
0  3.239138 -11.779232 53.725006  0.043539 0.986190 -0.159792  0.346013 0.374108 1 10 1.000000
0  -1.515027 -10.650535 59.395435  0.043581 0.986193 -0.159763  0.346006 0.494799 1 10 1.000000
0  -0.894871 -10.766253 59.938416  0.410481 0.894584 0.176706  0.339720 0.494810 1 10 1.000000
pyro_red
0  2.604940 -12.015004 53.240219  -0.347973 0.819737 -0.454913  0.277654 0.374090 1 10 1.000000
0  -1.515027 -10.650535 59.395435  0.043581 0.986193 -0.159763  0.271374 0.494795 1 10 1.000000
0  3.239138 -11.779232 53.725006  0.043539 0.986190 -0.159792  0.271368 0.374105 1 10 1.000000
pyro_red
0  2.604940 -12.015004 53.240219  -0.347973 0.819737 -0.454913  0.277654 0.374090 1 10 1.000000
0  -2.149223 -10.886306 58.910648  -0.347977 0.819734 -0.454916  0.277660 0.494807 1 10 1.000000
0  -1.515027 -10.650535 59.395435  0.043581 0.986193 -0.159763  0.271374 0.494795 1 10 1.000000
pyro_red
0  2.604940 -12.015004 53.240219  -0.347973 0.819737 -0.454913  0.277654 0.374090 1 10 1.000000
0  -2.606125 -11.533962 58.656490  -0.640077 0.420775 -0.642845  0.283946 0.494819 1 10 1.000000
0  -2.149223 -10.886306 58.910648  -0.347977 0.819734 -0.454916  0.277660 0.494807 1 10 1.000000
pyro_red
0  2.604940 -12.015004 53.240219  -0.347973 0.819737 -0.454913  0.277654 0.374090 1 10 1.000000
0  2.148038 -12.662661 52.986061  -0.640080 0.420774 -0.642843  0.283941 0.374075 1 10 1.000000
0  -2.606125 -11.533962 58.656490  -0.640077 0.420775 -0.642845  0.283946 0.494819 1 10 1.000000
pyro_red
0  1.922312 -13.463264 52.956169  -0.759614 -0.082860 -0.645075  0.290150 0.374066 1 10 1.000000
0  -2.606125 -11.533962 58.656490  -0.640077 0.420775 -0.642845  0.283946 0.494819 1 10 1.000000
0  2.148038 -12.662661 52.986061  -0.640080 0.420774 -0.642843  0.283941 0.374075 1 10 1.000000
pyro_red
0  1.922312 -13.463264 52.956169  -0.759614 -0.082860 -0.645075  0.290150 0.374066 1 10 1.000000
0  -2.831852 -12.334570 58.626614  -0.759625 -0.082849 -0.645063  0.290154 0.494825 1 10 1.000000
0  -2.606125 -11.533962 58.656490  -0.640077 0.420775 -0.642845  0.283946 0.494819 1 10 1.000000
pyro_red
0  1.922312 -13.463264 52.956169  -0.759614 -0.082860 -0.645075  0.290150 0.374066 1 10 1.000000
0  -2.668598 -13.097942 58.915424  -0.689627 -0.552426 -0.468231  0.296361 0.494832 1 10 1.000000
0  -2.831852 -12.334570 58.626614  -0.759625 -0.082849 -0.645063  0.290154 0.494825 1 10 1.000000
pyro_red
0  1.922312 -13.463264 52.956169  -0.759614 -0.082860 -0.645075  0.290150 0.374066 1 10 1.000000
0  2.085566 -14.226639 53.244991  -0.689604 -0.552473 -0.468209  0.296359 0.374058 1 10 1.000000
0  -2.668598 -13.097942 58.915424  -0.689627 -0.552426 -0.468231  0.296361 0.494832 1 10 1.000000
pyro_red
0  2.494035 -14.791471 53.699890  -0.410535 -0.894551 -0.176747  0.302525 0.374051 1 10 1.000000
0  -2.668598 -13.097942 58.915424  -0.689627 -0.552426 -0.468231  0.296361 0.494832 1 10 1.000000
0  2.085566 -14.226639 53.244991  -0.689604 -0.552473 -0.468209  0.296359 0.374058 1 10 1.000000
pyro_red
0  2.494035 -14.791471 53.699890  -0.410535 -0.894551 -0.176747  0.302525 0.374051 1 10 1.000000
0  -2.260128 -13.662773 59.370323  -0.410603 -0.894523 -0.176730  0.302526 0.494839 1 10 1.000000
0  -2.668598 -13.097942 58.915424  -0.689627 -0.552426 -0.468231  0.296361 0.494832 1 10 1.000000
pyro_red
0  2.494035 -14.791471 53.699890  -0.410535 -0.894551 -0.176747  0.302525 0.374051 1 10 1.000000
0  -1.639973 -13.778494 59.913300  -0.035477 -0.985081 0.168394  0.308690 0.494847 1 10 1.000000
0  -2.260128 -13.662773 59.370323  -0.410603 -0.894523 -0.176730  0.302526 0.494839 1 10 1.000000
pyro_red
0  2.494035 -14.791471 53.699890  -0.410535 -0.894551 -0.176747  0.302525 0.374051 1 10 1.000000
0  3.114192 -14.907191 54.242870  -0.035418 -0.985069 0.168478  0.308691 0.374044 1 10 1.000000
0  -1.639973 -13.778494 59.913300  -0.035477 -0.985081 0.168394  0.308690 0.494847 1 10 1.000000
pyro_red
0  3.114192 -14.907191 54.242870  -0.035418 -0.985069 0.168478  0.308691 0.374044 1 10 1.000000
0  -1.005777 -13.542721 60.398087  0.347900 -0.819773 0.454904  0.314855 0.494841 1 10 1.000000
0  -1.639973 -13.778494 59.913300  -0.035477 -0.985081 0.168394  0.308690 0.494847 1 10 1.000000
pyro_red
0  3.114192 -14.907191 54.242870  -0.035418 -0.985069 0.168478  0.308691 0.374044 1 10 1.000000
0  3.748387 -14.671420 54.727657  0.347870 -0.819820 0.454842  0.314856 0.374052 1 10 1.000000
0  -1.005777 -13.542721 60.398087  0.347900 -0.819773 0.454904  0.314855 0.494841 1 10 1.000000
pyro_red
0  4.205343 -14.023914 54.982517  0.646109 -0.433715 0.628040  0.321022 0.374060 1 10 1.000000
0  -1.005777 -13.542721 60.398087  0.347900 -0.819773 0.454904  0.314855 0.494841 1 10 1.000000
0  3.748387 -14.671420 54.727657  0.347870 -0.819820 0.454842  0.314856 0.374052 1 10 1.000000
pyro_red
0  4.205343 -14.023914 54.982517  0.646109 -0.433715 0.628040  0.321022 0.374060 1 10 1.000000
0  -0.548874 -12.895064 60.652248  0.646088 -0.433656 0.628102  0.321019 0.494834 1 10 1.000000
0  -1.005777 -13.542721 60.398087  0.347900 -0.819773 0.454904  0.314855 0.494841 1 10 1.000000
pyro_red
0  4.205343 -14.023914 54.982517  0.646109 -0.433715 0.628040  0.321022 0.374060 1 10 1.000000
0  -0.323147 -12.094460 60.682140  0.759598 0.082768 0.645105  0.327226 0.494828 1 10 1.000000
0  -0.548874 -12.895064 60.652248  0.646088 -0.433656 0.628102  0.321019 0.494834 1 10 1.000000
pyro_red
0  4.205343 -14.023914 54.982517  0.646109 -0.433715 0.628040  0.321022 0.374060 1 10 1.000000
0  4.431068 -13.223287 55.012352  0.759591 0.082760 0.645114  0.327231 0.374069 1 10 1.000000
0  -0.323147 -12.094460 60.682140  0.759598 0.082768 0.645105  0.327226 0.494828 1 10 1.000000
pyro_red
0  6.279013 -9.969339 56.351471  0.043511 0.986187 -0.159817  0.271368 0.374105 1 9 1.000000
0  0.794070 -9.083629 61.436108  -0.347930 0.819757 -0.454910  0.277660 0.494807 1 9 1.000000
0  1.417992 -8.840641 61.930569  0.043491 0.986185 -0.159837  0.271374 0.494795 1 9 1.000000
pyro_red
0  6.279013 -9.969339 56.351471  0.043511 0.986187 -0.159817  0.271368 0.374105 1 9 1.000000
0  5.655090 -10.212327 55.857010  -0.347923 0.819759 -0.454912  0.277654 0.374090 1 9 1.000000
0  0.794070 -9.083629 61.436108  -0.347930 0.819757 -0.454910  0.277660 0.494807 1 9 1.000000
pyro_red
0  5.655090 -10.212327 55.857010  -0.347923 0.819759 -0.454912  0.277654 0.374090 1 9 1.000000
0  0.346158 -9.735909 61.177807  -0.640087 0.420784 -0.642829  0.283946 0.494819 1 9 1.000000
0  0.794070 -9.083629 61.436108  -0.347930 0.819757 -0.454910  0.277660 0.494807 1 9 1.000000
pyro_red
0  5.655090 -10.212327 55.857010  -0.347923 0.819759 -0.454912  0.277654 0.374090 1 9 1.000000
0  5.207178 -10.864608 55.598709  -0.640086 0.420784 -0.642830  0.283941 0.374075 1 9 1.000000
0  0.346158 -9.735909 61.177807  -0.640087 0.420784 -0.642829  0.283946 0.494819 1 9 1.000000
pyro_red
0  5.207178 -10.864608 55.598709  -0.640086 0.420784 -0.642830  0.283941 0.374075 1 9 1.000000
0  0.126471 -10.538220 61.148708  -0.759610 -0.082861 -0.645079  0.290154 0.494825 1 9 1.000000
0  0.346158 -9.735909 61.177807  -0.640087 0.420784 -0.642829  0.283946 0.494819 1 9 1.000000
pyro_red
0  5.207178 -10.864608 55.598709  -0.640086 0.420784 -0.642830  0.283941 0.374075 1 9 1.000000
0  4.987491 -11.666920 55.569611  -0.759610 -0.082861 -0.645079  0.290150 0.374066 1 9 1.000000
0  0.126471 -10.538220 61.148708  -0.759610 -0.082861 -0.645079  0.290154 0.494825 1 9 1.000000
pyro_red
0  5.150841 -12.427449 55.865799  -0.689608 -0.552475 -0.468202  0.296359 0.374058 1 9 1.000000
0  0.126471 -10.538220 61.148708  -0.759610 -0.082861 -0.645079  0.290154 0.494825 1 9 1.000000
0  4.987491 -11.666920 55.569611  -0.759610 -0.082861 -0.645079  0.290150 0.374066 1 9 1.000000
pyro_red
0  5.150841 -12.427449 55.865799  -0.689608 -0.552475 -0.468202  0.296359 0.374058 1 9 1.000000
0  0.289820 -11.298750 61.444897  -0.689608 -0.552474 -0.468202  0.296361 0.494832 1 9 1.000000
0  0.126471 -10.538220 61.148708  -0.759610 -0.082861 -0.645079  0.290154 0.494825 1 9 1.000000
pyro_red
0  5.555077 -12.986772 56.331165  -0.410558 -0.894542 -0.176742  0.302525 0.374051 1 9 1.000000
0  0.289820 -11.298750 61.444897  -0.689608 -0.552474 -0.468202  0.296361 0.494832 1 9 1.000000
0  5.150841 -12.427449 55.865799  -0.689608 -0.552475 -0.468202  0.296359 0.374058 1 9 1.000000
pyro_red
0  5.555077 -12.986772 56.331165  -0.410558 -0.894542 -0.176742  0.302525 0.374051 1 9 1.000000
0  0.694057 -11.858075 61.910263  -0.410558 -0.894541 -0.176743  0.302526 0.494839 1 9 1.000000
0  0.289820 -11.298750 61.444897  -0.689608 -0.552474 -0.468202  0.296361 0.494832 1 9 1.000000
pyro_red
0  6.166337 -13.095020 56.885651  -0.035511 -0.985087 0.168352  0.308691 0.374044 1 9 1.000000
0  0.694057 -11.858075 61.910263  -0.410558 -0.894541 -0.176743  0.302526 0.494839 1 9 1.000000
0  5.555077 -12.986772 56.331165  -0.410558 -0.894542 -0.176742  0.302525 0.374051 1 9 1.000000
pyro_red
0  6.166337 -13.095020 56.885651  -0.035511 -0.985087 0.168352  0.308691 0.374044 1 9 1.000000
0  1.305317 -11.966323 62.464748  -0.035510 -0.985087 0.168352  0.308690 0.494847 1 9 1.000000
0  0.694057 -11.858075 61.910263  -0.410558 -0.894541 -0.176743  0.302526 0.494839 1 9 1.000000
pyro_red
0  6.790259 -12.852034 57.380112  0.347911 -0.819802 0.454843  0.314856 0.374052 1 9 1.000000
0  1.305317 -11.966323 62.464748  -0.035510 -0.985087 0.168352  0.308690 0.494847 1 9 1.000000
0  6.166337 -13.095020 56.885651  -0.035511 -0.985087 0.168352  0.308691 0.374044 1 9 1.000000
pyro_red
0  6.790259 -12.852034 57.380112  0.347911 -0.819802 0.454843  0.314856 0.374052 1 9 1.000000
0  1.929238 -11.723333 62.959209  0.347919 -0.819784 0.454870  0.314855 0.494841 1 9 1.000000
0  1.305317 -11.966323 62.464748  -0.035510 -0.985087 0.168352  0.308690 0.494847 1 9 1.000000
pyro_red
0  7.238198 -12.199788 57.638618  0.646118 -0.433699 0.628042  0.321022 0.374060 1 9 1.000000
0  1.929238 -11.723333 62.959209  0.347919 -0.819784 0.454870  0.314855 0.494841 1 9 1.000000
0  6.790259 -12.852034 57.380112  0.347911 -0.819802 0.454843  0.314856 0.374052 1 9 1.000000
pyro_red
0  7.238198 -12.199788 57.638618  0.646118 -0.433699 0.628042  0.321022 0.374060 1 9 1.000000
0  2.377151 -11.071054 63.217506  0.646116 -0.433707 0.628038  0.321019 0.494834 1 9 1.000000
0  1.929238 -11.723333 62.959209  0.347919 -0.819784 0.454870  0.314855 0.494841 1 9 1.000000
pyro_red
0  7.238198 -12.199788 57.638618  0.646118 -0.433699 0.628042  0.321022 0.374060 1 9 1.000000
0  2.596838 -10.268743 63.246605  0.759582 0.082856 0.645112  0.327226 0.494828 1 9 1.000000
0  2.377151 -11.071054 63.217506  0.646116 -0.433707 0.628038  0.321019 0.494834 1 9 1.000000
pyro_red
0  7.238198 -12.199788 57.638618  0.646118 -0.433699 0.628042  0.321022 0.374060 1 9 1.000000
0  7.457883 -11.397470 57.667698  0.759589 0.082634 0.645132  0.327231 0.374069 1 9 1.000000
0  2.596838 -10.268743 63.246605  0.759582 0.082856 0.645112  0.327226 0.494828 1 9 1.000000
pyro_red
0  7.294603 -10.637018 57.372059  0.689620 0.552459 0.468203  0.333440 0.374078 1 9 1.000000
0  2.596838 -10.268743 63.246605  0.759582 0.082856 0.645112  0.327226 0.494828 1 9 1.000000
0  7.457883 -11.397470 57.667698  0.759589 0.082634 0.645132  0.327231 0.374069 1 9 1.000000
pyro_red
0  7.294603 -10.637018 57.372059  0.689620 0.552459 0.468203  0.333440 0.374078 1 9 1.000000
0  2.433489 -9.508214 62.950417  0.689638 0.552446 0.468192  0.333434 0.494821 1 9 1.000000
0  2.596838 -10.268743 63.246605  0.759582 0.082856 0.645112  0.327226 0.494828 1 9 1.000000
pyro_red
0  7.294603 -10.637018 57.372059  0.689620 0.552459 0.468203  0.333440 0.374078 1 9 1.000000
0  2.029254 -8.948889 62.485054  0.410541 0.894548 0.176748  0.339720 0.494810 1 9 1.000000
0  2.433489 -9.508214 62.950417  0.689638 0.552446 0.468192  0.333434 0.494821 1 9 1.000000
pyro_red
0  7.294603 -10.637018 57.372059  0.689620 0.552459 0.468203  0.333440 0.374078 1 9 1.000000
0  6.890275 -10.077587 56.905956  0.410428 0.894627 0.176611  0.339727 0.374093 1 9 1.000000
0  2.029254 -8.948889 62.485054  0.410541 0.894548 0.176748  0.339720 0.494810 1 9 1.000000
pyro_red
0  6.279013 -9.969339 56.351471  0.043511 0.986187 -0.159817  0.346013 0.374108 1 9 1.000000
0  2.029254 -8.948889 62.485054  0.410541 0.894548 0.176748  0.339720 0.494810 1 9 1.000000
0  6.890275 -10.077587 56.905956  0.410428 0.894627 0.176611  0.339727 0.374093 1 9 1.000000
pyro_red
0  6.279013 -9.969339 56.351471  0.043511 0.986187 -0.159817  0.346013 0.374108 1 9 1.000000
0  1.417992 -8.840641 61.930569  0.043491 0.986185 -0.159837  0.346006 0.494799 1 9 1.000000
0  2.029254 -8.948889 62.485054  0.410541 0.894548 0.176748  0.339720 0.494810 1 9 1.000000
pyro_red
0  8.218995 -7.902376 58.614433  -0.437466 0.738068 -0.513691  0.277654 0.374090 1 8 1.000000
0  4.080093 -6.438076 64.733902  -0.060572 0.968016 -0.243467  0.271374 0.494795 1 8 1.000000
0  8.834256 -7.566773 59.063477  -0.060569 0.968017 -0.243465  0.271368 0.374105 1 8 1.000000
pyro_red
0  8.218995 -7.902376 58.614433  -0.437466 0.738068 -0.513691  0.277654 0.374090 1 8 1.000000
0  3.464833 -6.773679 64.284866  -0.437469 0.738067 -0.513691  0.277660 0.494807 1 8 1.000000
0  4.080093 -6.438076 64.733902  -0.060572 0.968016 -0.243467  0.271374 0.494795 1 8 1.000000
pyro_red
0  7.824328 -8.610152 58.424423  -0.697145 0.310356 -0.646272  0.283941 0.374075 1 8 1.000000
0  3.464833 -6.773679 64.284866  -0.437469 0.738067 -0.513691  0.277660 0.494807 1 8 1.000000
0  8.218995 -7.902376 58.614433  -0.437466 0.738068 -0.513691  0.277654 0.374090 1 8 1.000000
pyro_red
0  7.824328 -8.610152 58.424423  -0.697145 0.310356 -0.646272  0.283941 0.374075 1 8 1.000000
0  3.070166 -7.481455 64.094856  -0.697145 0.310359 -0.646271  0.283946 0.494819 1 8 1.000000
0  3.464833 -6.773679 64.284866  -0.437469 0.738067 -0.513691  0.277660 0.494807 1 8 1.000000
pyro_red
0  7.824328 -8.610152 58.424423  -0.697145 0.310356 -0.646272  0.283941 0.374075 1 8 1.000000
0  2.924068 -8.299889 64.135269  -0.770025 -0.200514 -0.605686  0.290154 0.494825 1 8 1.000000
0  3.070166 -7.481455 64.094856  -0.697145 0.310359 -0.646271  0.283946 0.494819 1 8 1.000000
pyro_red
0  7.824328 -8.610152 58.424423  -0.697145 0.310356 -0.646272  0.283941 0.374075 1 8 1.000000
0  7.678231 -9.428588 58.464844  -0.770025 -0.200517 -0.605685  0.290150 0.374066 1 8 1.000000
0  2.924068 -8.299889 64.135269  -0.770025 -0.200514 -0.605686  0.290154 0.494825 1 8 1.000000
pyro_red
0  7.678231 -9.428588 58.464844  -0.770025 -0.200517 -0.605685  0.290150 0.374066 1 8 1.000000
0  3.166258 -9.017213 64.481110  -0.636576 -0.657661 -0.402806  0.296361 0.494832 1 8 1.000000
0  2.924068 -8.299889 64.135269  -0.770025 -0.200514 -0.605686  0.290154 0.494825 1 8 1.000000
pyro_red
0  7.678231 -9.428588 58.464844  -0.770025 -0.200517 -0.605685  0.290150 0.374066 1 8 1.000000
0  7.920422 -10.145910 58.810680  -0.636575 -0.657662 -0.402807  0.296359 0.374058 1 8 1.000000
0  3.166258 -9.017213 64.481110  -0.636576 -0.657661 -0.402806  0.296361 0.494832 1 8 1.000000
pyro_red
0  8.389585 -10.628742 59.300144  -0.332556 -0.938586 -0.091995  0.302525 0.374051 1 8 1.000000
0  3.166258 -9.017213 64.481110  -0.636576 -0.657661 -0.402806  0.296361 0.494832 1 8 1.000000
0  7.920422 -10.145910 58.810680  -0.636575 -0.657662 -0.402807  0.296359 0.374058 1 8 1.000000
pyro_red
0  8.389585 -10.628742 59.300144  -0.332556 -0.938586 -0.091995  0.302525 0.374051 1 8 1.000000
0  3.635422 -9.500046 64.970573  -0.332558 -0.938585 -0.091996  0.302526 0.494839 1 8 1.000000
0  3.166258 -9.017213 64.481110  -0.636576 -0.657661 -0.402806  0.296361 0.494832 1 8 1.000000
pyro_red
0  9.026442 -10.638288 59.835995  0.060571 -0.968016 0.243466  0.308691 0.374044 1 8 1.000000
0  3.635422 -9.500046 64.970573  -0.332558 -0.938585 -0.091996  0.302526 0.494839 1 8 1.000000
0  8.389585 -10.628742 59.300144  -0.332556 -0.938586 -0.091995  0.302525 0.374051 1 8 1.000000
pyro_red
0  9.026442 -10.638288 59.835995  0.060571 -0.968016 0.243466  0.308691 0.374044 1 8 1.000000
0  4.272279 -9.509592 65.506424  0.060570 -0.968016 0.243466  0.308690 0.494847 1 8 1.000000
0  3.635422 -9.500046 64.970573  -0.332558 -0.938585 -0.091996  0.302526 0.494839 1 8 1.000000
pyro_red
0  9.641703 -10.302686 60.285034  0.437468 -0.738068 0.513690  0.314856 0.374052 1 8 1.000000
0  4.272279 -9.509592 65.506424  0.060570 -0.968016 0.243466  0.308690 0.494847 1 8 1.000000
0  9.026442 -10.638288 59.835995  0.060571 -0.968016 0.243466  0.308691 0.374044 1 8 1.000000
pyro_red
0  9.641703 -10.302686 60.285034  0.437468 -0.738068 0.513690  0.314856 0.374052 1 8 1.000000
0  4.887540 -9.173989 65.955467  0.437468 -0.738068 0.513691  0.314855 0.494841 1 8 1.000000
0  4.272279 -9.509592 65.506424  0.060570 -0.968016 0.243466  0.308690 0.494847 1 8 1.000000
pyro_red
0  9.641703 -10.302686 60.285034  0.437468 -0.738068 0.513690  0.314856 0.374052 1 8 1.000000
0  5.282207 -8.466212 66.145477  0.697146 -0.310355 0.646271  0.321019 0.494834 1 8 1.000000
0  4.887540 -9.173989 65.955467  0.437468 -0.738068 0.513691  0.314855 0.494841 1 8 1.000000
pyro_red
0  9.641703 -10.302686 60.285034  0.437468 -0.738068 0.513690  0.314856 0.374052 1 8 1.000000
0  10.036370 -9.594912 60.475044  0.697146 -0.310355 0.646272  0.321022 0.374060 1 8 1.000000
0  5.282207 -8.466212 66.145477  0.697146 -0.310355 0.646271  0.321019 0.494834 1 8 1.000000
pyro_red
0  10.036370 -9.594912 60.475044  0.697146 -0.310355 0.646272  0.321022 0.374060 1 8 1.000000
0  5.428304 -7.647777 66.105057  0.770014 0.200508 0.605701  0.327226 0.494828 1 8 1.000000
0  5.282207 -8.466212 66.145477  0.697146 -0.310355 0.646271  0.321019 0.494834 1 8 1.000000
pyro_red
0  10.036370 -9.594912 60.475044  0.697146 -0.310355 0.646272  0.321022 0.374060 1 8 1.000000
0  10.182467 -8.776476 60.434624  0.770036 0.200326 0.605734  0.327231 0.374069 1 8 1.000000
0  5.428304 -7.647777 66.105057  0.770014 0.200508 0.605701  0.327226 0.494828 1 8 1.000000
pyro_red
0  9.940354 -8.059198 60.089252  0.636610 0.657603 0.402848  0.333440 0.374078 1 8 1.000000
0  5.428304 -7.647777 66.105057  0.770014 0.200508 0.605701  0.327226 0.494828 1 8 1.000000
0  10.182467 -8.776476 60.434624  0.770036 0.200326 0.605734  0.327231 0.374069 1 8 1.000000
pyro_red
0  9.940354 -8.059198 60.089252  0.636610 0.657603 0.402848  0.333440 0.374078 1 8 1.000000
0  5.186114 -6.930454 65.759216  0.636555 0.657669 0.402825  0.333434 0.494821 1 8 1.000000
0  5.428304 -7.647777 66.105057  0.770014 0.200508 0.605701  0.327226 0.494828 1 8 1.000000
pyro_red
0  9.940354 -8.059198 60.089252  0.636610 0.657603 0.402848  0.333440 0.374078 1 8 1.000000
0  4.716950 -6.447621 65.269753  0.332547 0.938589 0.091998  0.339720 0.494810 1 8 1.000000
0  5.186114 -6.930454 65.759216  0.636555 0.657669 0.402825  0.333434 0.494821 1 8 1.000000
pyro_red
0  9.940354 -8.059198 60.089252  0.636610 0.657603 0.402848  0.333440 0.374078 1 8 1.000000
0  9.471113 -7.576321 59.599327  0.332476 0.938622 0.091919  0.339727 0.374093 1 8 1.000000
0  4.716950 -6.447621 65.269753  0.332547 0.938589 0.091998  0.339720 0.494810 1 8 1.000000
pyro_red
0  9.471113 -7.576321 59.599327  0.332476 0.938622 0.091919  0.339727 0.374093 1 8 1.000000
0  4.080093 -6.438076 64.733902  -0.060572 0.968016 -0.243467  0.346006 0.494799 1 8 1.000000
0  4.716950 -6.447621 65.269753  0.332547 0.938589 0.091998  0.339720 0.494810 1 8 1.000000
pyro_red
0  9.471113 -7.576321 59.599327  0.332476 0.938622 0.091919  0.339727 0.374093 1 8 1.000000
0  8.834256 -7.566773 59.063477  -0.060569 0.968017 -0.243465  0.346013 0.374108 1 8 1.000000
0  4.080093 -6.438076 64.733902  -0.060572 0.968016 -0.243467  0.346006 0.494799 1 8 1.000000
pyro_red
0  4.267763 -12.459783 54.722885  0.634763 -0.150560 -0.757896  0.566330 0.436944 1 10 1.000000
0  3.239138 -11.779232 53.725006  0.635132 -0.150793 -0.757541  0.557479 0.415457 1 10 1.000000
0  3.859293 -11.894952 54.267986  0.635136 -0.150793 -0.757538  0.561905 0.426201 1 10 1.000000
pyro_red
0  4.267763 -12.459783 54.722885  0.634763 -0.150560 -0.757896  0.566330 0.436944 1 10 1.000000
0  2.604940 -12.015004 53.240219  0.635133 -0.150788 -0.757542  0.550623 0.417762 1 10 1.000000
0  3.239138 -11.779232 53.725006  0.635132 -0.150793 -0.757541  0.557479 0.415457 1 10 1.000000
pyro_red
0  4.267763 -12.459783 54.722885  0.634763 -0.150560 -0.757896  0.566330 0.436944 1 10 1.000000
0  2.148038 -12.662661 52.986061  0.635134 -0.150788 -0.757541  0.543767 0.420066 1 10 1.000000
0  2.604940 -12.015004 53.240219  0.635133 -0.150788 -0.757542  0.550623 0.417762 1 10 1.000000
pyro_red
0  4.267763 -12.459783 54.722885  0.634763 -0.150560 -0.757896  0.566330 0.436944 1 10 1.000000
0  1.922312 -13.463264 52.956169  0.635135 -0.150787 -0.757540  0.541336 0.433114 1 10 1.000000
0  2.148038 -12.662661 52.986061  0.635134 -0.150788 -0.757541  0.543767 0.420066 1 10 1.000000
pyro_red
0  4.267763 -12.459783 54.722885  0.634763 -0.150560 -0.757896  0.566330 0.436944 1 10 1.000000
0  2.085566 -14.226639 53.244991  0.635134 -0.150789 -0.757541  0.538906 0.446162 1 10 1.000000
0  1.922312 -13.463264 52.956169  0.635135 -0.150787 -0.757540  0.541336 0.433114 1 10 1.000000
pyro_red
0  4.267763 -12.459783 54.722885  0.634763 -0.150560 -0.757896  0.566330 0.436944 1 10 1.000000
0  2.494035 -14.791471 53.699890  0.635133 -0.150789 -0.757541  0.543332 0.456905 1 10 1.000000
0  2.085566 -14.226639 53.244991  0.635134 -0.150789 -0.757541  0.538906 0.446162 1 10 1.000000
pyro_red
0  4.267763 -12.459783 54.722885  0.634763 -0.150560 -0.757896  0.566330 0.436944 1 10 1.000000
0  3.114192 -14.907191 54.242870  0.635133 -0.150787 -0.757541  0.547757 0.467649 1 10 1.000000
0  2.494035 -14.791471 53.699890  0.635133 -0.150789 -0.757541  0.543332 0.456905 1 10 1.000000
pyro_red
0  4.267763 -12.459783 54.722885  0.634763 -0.150560 -0.757896  0.566330 0.436944 1 10 1.000000
0  3.748387 -14.671420 54.727657  0.635302 -0.150829 -0.757392  0.554613 0.465344 1 10 1.000000
0  3.114192 -14.907191 54.242870  0.635133 -0.150787 -0.757541  0.547757 0.467649 1 10 1.000000
pyro_red
0  4.267763 -12.459783 54.722885  0.634763 -0.150560 -0.757896  0.566330 0.436944 1 10 1.000000
0  4.205343 -14.023914 54.982517  0.635567 -0.150884 -0.757159  0.561469 0.463039 1 10 1.000000
0  3.748387 -14.671420 54.727657  0.635302 -0.150829 -0.757392  0.554613 0.465344 1 10 1.000000
pyro_red
0  4.267763 -12.459783 54.722885  0.634763 -0.150560 -0.757896  0.566330 0.436944 1 10 1.000000
0  4.431068 -13.223287 55.012352  0.635513 -0.150915 -0.757197  0.563900 0.449992 1 10 1.000000
0  4.205343 -14.023914 54.982517  0.635567 -0.150884 -0.757159  0.561469 0.463039 1 10 1.000000
pyro_red
0  3.070166 -7.481455 64.094856  -0.635132 0.150789 0.757542  0.556322 0.350550 1 8 1.000000
0  4.080093 -6.438076 64.733902  -0.635132 0.150793 0.757541  0.540000 0.345716 1 8 1.000000
0  3.464833 -6.773679 64.284866  -0.635139 0.150784 0.757537  0.548161 0.348133 1 8 1.000000
pyro_red
0  3.070166 -7.481455 64.094856  -0.635132 0.150789 0.757542  0.556322 0.350550 1 8 1.000000
0  4.716950 -6.447621 65.269753  -0.635129 0.150793 0.757544  0.534877 0.358666 1 8 1.000000
0  4.080093 -6.438076 64.733902  -0.635132 0.150793 0.757541  0.540000 0.345716 1 8 1.000000
pyro_red
0  3.070166 -7.481455 64.094856  -0.635132 0.150789 0.757542  0.556322 0.350550 1 8 1.000000
0  5.186114 -6.930454 65.759216  -0.635132 0.150791 0.757542  0.529753 0.371617 1 8 1.000000
0  4.716950 -6.447621 65.269753  -0.635129 0.150793 0.757544  0.534877 0.358666 1 8 1.000000
pyro_red
0  3.070166 -7.481455 64.094856  -0.635132 0.150789 0.757542  0.556322 0.350550 1 8 1.000000
0  5.428304 -7.647777 66.105057  -0.635135 0.150789 0.757540  0.532791 0.386984 1 8 1.000000
0  5.186114 -6.930454 65.759216  -0.635132 0.150791 0.757542  0.529753 0.371617 1 8 1.000000
pyro_red
0  3.070166 -7.481455 64.094856  -0.635132 0.150789 0.757542  0.556322 0.350550 1 8 1.000000
0  5.282207 -8.466212 66.145477  -0.635134 0.150789 0.757541  0.535829 0.402352 1 8 1.000000
0  5.428304 -7.647777 66.105057  -0.635135 0.150789 0.757540  0.532791 0.386984 1 8 1.000000
pyro_red
0  3.070166 -7.481455 64.094856  -0.635132 0.150789 0.757542  0.556322 0.350550 1 8 1.000000
0  4.887540 -9.173989 65.955467  -0.635132 0.150789 0.757542  0.543990 0.404769 1 8 1.000000
0  5.282207 -8.466212 66.145477  -0.635134 0.150789 0.757541  0.535829 0.402352 1 8 1.000000
pyro_red
0  3.070166 -7.481455 64.094856  -0.635132 0.150789 0.757542  0.556322 0.350550 1 8 1.000000
0  4.272279 -9.509592 65.506424  -0.635134 0.150788 0.757541  0.552151 0.407186 1 8 1.000000
0  4.887540 -9.173989 65.955467  -0.635132 0.150789 0.757542  0.543990 0.404769 1 8 1.000000
pyro_red
0  3.070166 -7.481455 64.094856  -0.635132 0.150789 0.757542  0.556322 0.350550 1 8 1.000000
0  3.635422 -9.500046 64.970573  -0.635136 0.150787 0.757539  0.557275 0.394235 1 8 1.000000
0  4.272279 -9.509592 65.506424  -0.635134 0.150788 0.757541  0.552151 0.407186 1 8 1.000000
pyro_red
0  3.070166 -7.481455 64.094856  -0.635132 0.150789 0.757542  0.556322 0.350550 1 8 1.000000
0  3.166258 -9.017213 64.481110  -0.635137 0.150786 0.757539  0.562398 0.381285 1 8 1.000000
0  3.635422 -9.500046 64.970573  -0.635136 0.150787 0.757539  0.557275 0.394235 1 8 1.000000
pyro_red
0  3.070166 -7.481455 64.094856  -0.635132 0.150789 0.757542  0.556322 0.350550 1 8 1.000000
0  2.924068 -8.299889 64.135269  -0.635120 0.150788 0.757553  0.559360 0.365918 1 8 1.000000
0  3.166258 -9.017213 64.481110  -0.635137 0.150786 0.757539  0.562398 0.381285 1 8 1.000000
pyro_red
0  -0.548874 -12.895064 60.652248  -0.635134 0.150788 0.757540  0.535829 0.402352 1 10 1.000000
0  -1.639973 -13.778494 59.913300  -0.635137 0.150782 0.757539  0.552151 0.407186 1 10 1.000000
0  -1.005777 -13.542721 60.398087  -0.635130 0.150782 0.757545  0.543990 0.404769 1 10 1.000000
pyro_red
0  -0.548874 -12.895064 60.652248  -0.635134 0.150788 0.757540  0.535829 0.402352 1 10 1.000000
0  -2.260128 -13.662773 59.370323  -0.635132 0.150789 0.757542  0.557275 0.394235 1 10 1.000000
0  -1.639973 -13.778494 59.913300  -0.635137 0.150782 0.757539  0.552151 0.407186 1 10 1.000000
pyro_red
0  -0.548874 -12.895064 60.652248  -0.635134 0.150788 0.757540  0.535829 0.402352 1 10 1.000000
0  -2.668598 -13.097942 58.915424  -0.635134 0.150781 0.757542  0.562398 0.381285 1 10 1.000000
0  -2.260128 -13.662773 59.370323  -0.635132 0.150789 0.757542  0.557275 0.394235 1 10 1.000000
pyro_red
0  -0.548874 -12.895064 60.652248  -0.635134 0.150788 0.757540  0.535829 0.402352 1 10 1.000000
0  -2.831852 -12.334570 58.626614  -0.635131 0.150791 0.757543  0.559360 0.365918 1 10 1.000000
0  -2.668598 -13.097942 58.915424  -0.635134 0.150781 0.757542  0.562398 0.381285 1 10 1.000000
pyro_red
0  -0.548874 -12.895064 60.652248  -0.635134 0.150788 0.757540  0.535829 0.402352 1 10 1.000000
0  -2.606125 -11.533962 58.656490  -0.635131 0.150795 0.757542  0.556322 0.350550 1 10 1.000000
0  -2.831852 -12.334570 58.626614  -0.635131 0.150791 0.757543  0.559360 0.365918 1 10 1.000000
pyro_red
0  -0.548874 -12.895064 60.652248  -0.635134 0.150788 0.757540  0.535829 0.402352 1 10 1.000000
0  -2.149223 -10.886306 58.910648  -0.635134 0.150789 0.757541  0.548161 0.348133 1 10 1.000000
0  -2.606125 -11.533962 58.656490  -0.635131 0.150795 0.757542  0.556322 0.350550 1 10 1.000000
pyro_red
0  -0.548874 -12.895064 60.652248  -0.635134 0.150788 0.757540  0.535829 0.402352 1 10 1.000000
0  -1.515027 -10.650535 59.395435  -0.635132 0.150790 0.757542  0.540000 0.345716 1 10 1.000000
0  -2.149223 -10.886306 58.910648  -0.635134 0.150789 0.757541  0.548161 0.348133 1 10 1.000000
pyro_red
0  -0.548874 -12.895064 60.652248  -0.635134 0.150788 0.757540  0.535829 0.402352 1 10 1.000000
0  -0.894871 -10.766253 59.938416  -0.635132 0.150790 0.757542  0.534877 0.358666 1 10 1.000000
0  -1.515027 -10.650535 59.395435  -0.635132 0.150790 0.757542  0.540000 0.345716 1 10 1.000000
pyro_red
0  -0.548874 -12.895064 60.652248  -0.635134 0.150788 0.757540  0.535829 0.402352 1 10 1.000000
0  -0.486400 -11.331085 60.393314  -0.635128 0.150791 0.757545  0.529753 0.371617 1 10 1.000000
0  -0.894871 -10.766253 59.938416  -0.635132 0.150790 0.757542  0.534877 0.358666 1 10 1.000000
pyro_red
0  -0.548874 -12.895064 60.652248  -0.635134 0.150788 0.757540  0.535829 0.402352 1 10 1.000000
0  -0.323147 -12.094460 60.682140  -0.635154 0.150787 0.757524  0.532791 0.386984 1 10 1.000000
0  -0.486400 -11.331085 60.393314  -0.635128 0.150791 0.757545  0.529753 0.371617 1 10 1.000000
pyro_red
0  10.036370 -9.594912 60.475044  0.635132 -0.150751 -0.757549  0.561469 0.463039 1 8 1.000000
0  9.940354 -8.059198 60.089252  0.635576 -0.150489 -0.757230  0.566330 0.436944 1 8 1.000000
0  10.182467 -8.776476 60.434624  0.635317 -0.150780 -0.757389  0.563900 0.449992 1 8 1.000000
pyro_red
0  10.036370 -9.594912 60.475044  0.635132 -0.150751 -0.757549  0.561469 0.463039 1 8 1.000000
0  9.471113 -7.576321 59.599327  0.635244 -0.150723 -0.757462  0.561905 0.426201 1 8 1.000000
0  9.940354 -8.059198 60.089252  0.635576 -0.150489 -0.757230  0.566330 0.436944 1 8 1.000000
pyro_red
0  10.036370 -9.594912 60.475044  0.635132 -0.150751 -0.757549  0.561469 0.463039 1 8 1.000000
0  8.834256 -7.566773 59.063477  0.635134 -0.150787 -0.757541  0.557479 0.415457 1 8 1.000000
0  9.471113 -7.576321 59.599327  0.635244 -0.150723 -0.757462  0.561905 0.426201 1 8 1.000000
pyro_red
0  10.036370 -9.594912 60.475044  0.635132 -0.150751 -0.757549  0.561469 0.463039 1 8 1.000000
0  8.218995 -7.902376 58.614433  0.635133 -0.150789 -0.757541  0.550623 0.417762 1 8 1.000000
0  8.834256 -7.566773 59.063477  0.635134 -0.150787 -0.757541  0.557479 0.415457 1 8 1.000000
pyro_red
0  10.036370 -9.594912 60.475044  0.635132 -0.150751 -0.757549  0.561469 0.463039 1 8 1.000000
0  7.824328 -8.610152 58.424423  0.635133 -0.150789 -0.757542  0.543767 0.420066 1 8 1.000000
0  8.218995 -7.902376 58.614433  0.635133 -0.150789 -0.757541  0.550623 0.417762 1 8 1.000000
pyro_red
0  10.036370 -9.594912 60.475044  0.635132 -0.150751 -0.757549  0.561469 0.463039 1 8 1.000000
0  7.678231 -9.428588 58.464844  0.635131 -0.150788 -0.757543  0.541336 0.433114 1 8 1.000000
0  7.824328 -8.610152 58.424423  0.635133 -0.150789 -0.757542  0.543767 0.420066 1 8 1.000000
pyro_red
0  10.036370 -9.594912 60.475044  0.635132 -0.150751 -0.757549  0.561469 0.463039 1 8 1.000000
0  7.920422 -10.145910 58.810680  0.635132 -0.150789 -0.757542  0.538906 0.446162 1 8 1.000000
0  7.678231 -9.428588 58.464844  0.635131 -0.150788 -0.757543  0.541336 0.433114 1 8 1.000000
pyro_red
0  10.036370 -9.594912 60.475044  0.635132 -0.150751 -0.757549  0.561469 0.463039 1 8 1.000000
0  8.389585 -10.628742 59.300144  0.635135 -0.150793 -0.757539  0.543332 0.456905 1 8 1.000000
0  7.920422 -10.145910 58.810680  0.635132 -0.150789 -0.757542  0.538906 0.446162 1 8 1.000000
pyro_red
0  10.036370 -9.594912 60.475044  0.635132 -0.150751 -0.757549  0.561469 0.463039 1 8 1.000000
0  9.026442 -10.638288 59.835995  0.635128 -0.150792 -0.757545  0.547757 0.467649 1 8 1.000000
0  8.389585 -10.628742 59.300144  0.635135 -0.150793 -0.757539  0.543332 0.456905 1 8 1.000000
pyro_red
0  10.036370 -9.594912 60.475044  0.635132 -0.150751 -0.757549  0.561469 0.463039 1 8 1.000000
0  9.641703 -10.302686 60.285034  0.635145 -0.150787 -0.757532  0.554613 0.465344 1 8 1.000000
0  9.026442 -10.638288 59.835995  0.635128 -0.150792 -0.757545  0.547757 0.467649 1 8 1.000000
pyro_red
0  6.166337 -13.095020 56.885651  0.635120 -0.150766 -0.757557  0.547757 0.467649 1 9 1.000000
0  7.238198 -12.199788 57.638618  0.635142 -0.150757 -0.757540  0.561469 0.463039 1 9 1.000000
0  6.790259 -12.852034 57.380112  0.635151 -0.150765 -0.757531  0.554613 0.465344 1 9 1.000000
pyro_red
0  6.166337 -13.095020 56.885651  0.635120 -0.150766 -0.757557  0.547757 0.467649 1 9 1.000000
0  7.457883 -11.397470 57.667698  0.635147 -0.150767 -0.757534  0.563900 0.449992 1 9 1.000000
0  7.238198 -12.199788 57.638618  0.635142 -0.150757 -0.757540  0.561469 0.463039 1 9 1.000000
pyro_red
0  6.166337 -13.095020 56.885651  0.635120 -0.150766 -0.757557  0.547757 0.467649 1 9 1.000000
0  7.294603 -10.637018 57.372059  0.635148 -0.150769 -0.757533  0.566330 0.436944 1 9 1.000000
0  7.457883 -11.397470 57.667698  0.635147 -0.150767 -0.757534  0.563900 0.449992 1 9 1.000000
pyro_red
0  6.166337 -13.095020 56.885651  0.635120 -0.150766 -0.757557  0.547757 0.467649 1 9 1.000000
0  6.890275 -10.077587 56.905956  0.635140 -0.150768 -0.757540  0.561905 0.426201 1 9 1.000000
0  7.294603 -10.637018 57.372059  0.635148 -0.150769 -0.757533  0.566330 0.436944 1 9 1.000000
pyro_red
0  6.166337 -13.095020 56.885651  0.635120 -0.150766 -0.757557  0.547757 0.467649 1 9 1.000000
0  6.279013 -9.969339 56.351471  0.635165 -0.150766 -0.757519  0.557479 0.415457 1 9 1.000000
0  6.890275 -10.077587 56.905956  0.635140 -0.150768 -0.757540  0.561905 0.426201 1 9 1.000000
pyro_red
0  6.166337 -13.095020 56.885651  0.635120 -0.150766 -0.757557  0.547757 0.467649 1 9 1.000000
0  5.655090 -10.212327 55.857010  0.635164 -0.150765 -0.757520  0.550623 0.417762 1 9 1.000000
0  6.279013 -9.969339 56.351471  0.635165 -0.150766 -0.757519  0.557479 0.415457 1 9 1.000000
pyro_red
0  6.166337 -13.095020 56.885651  0.635120 -0.150766 -0.757557  0.547757 0.467649 1 9 1.000000
0  5.207178 -10.864608 55.598709  0.635126 -0.150765 -0.757552  0.543767 0.420066 1 9 1.000000
0  5.655090 -10.212327 55.857010  0.635164 -0.150765 -0.757520  0.550623 0.417762 1 9 1.000000
pyro_red
0  6.166337 -13.095020 56.885651  0.635120 -0.150766 -0.757557  0.547757 0.467649 1 9 1.000000
0  4.987491 -11.666920 55.569611  0.635164 -0.150765 -0.757520  0.541336 0.433114 1 9 1.000000
0  5.207178 -10.864608 55.598709  0.635126 -0.150765 -0.757552  0.543767 0.420066 1 9 1.000000
pyro_red
0  6.166337 -13.095020 56.885651  0.635120 -0.150766 -0.757557  0.547757 0.467649 1 9 1.000000
0  5.150841 -12.427449 55.865799  0.635130 -0.150773 -0.757547  0.538906 0.446162 1 9 1.000000
0  4.987491 -11.666920 55.569611  0.635164 -0.150765 -0.757520  0.541336 0.433114 1 9 1.000000
pyro_red
0  6.166337 -13.095020 56.885651  0.635120 -0.150766 -0.757557  0.547757 0.467649 1 9 1.000000
0  5.555077 -12.986772 56.331165  0.635169 -0.150762 -0.757517  0.543332 0.456905 1 9 1.000000
0  5.150841 -12.427449 55.865799  0.635130 -0.150773 -0.757547  0.538906 0.446162 1 9 1.000000
pyro_red
0  2.377151 -11.071054 63.217506  -0.635162 0.150787 0.757517  0.535829 0.402352 1 9 1.000000
0  1.305317 -11.966323 62.464748  -0.635125 0.150789 0.757548  0.552151 0.407186 1 9 1.000000
0  1.929238 -11.723333 62.959209  -0.635158 0.150789 0.757520  0.543990 0.404769 1 9 1.000000
pyro_red
0  2.377151 -11.071054 63.217506  -0.635162 0.150787 0.757517  0.535829 0.402352 1 9 1.000000
0  0.694057 -11.858075 61.910263  -0.635162 0.150783 0.757518  0.557275 0.394235 1 9 1.000000
0  1.305317 -11.966323 62.464748  -0.635125 0.150789 0.757548  0.552151 0.407186 1 9 1.000000
pyro_red
0  2.377151 -11.071054 63.217506  -0.635162 0.150787 0.757517  0.535829 0.402352 1 9 1.000000
0  0.289820 -11.298750 61.444897  -0.635198 0.150782 0.757488  0.562398 0.381285 1 9 1.000000
0  0.694057 -11.858075 61.910263  -0.635162 0.150783 0.757518  0.557275 0.394235 1 9 1.000000
pyro_red
0  2.377151 -11.071054 63.217506  -0.635162 0.150787 0.757517  0.535829 0.402352 1 9 1.000000
0  0.126471 -10.538220 61.148708  -0.635159 0.150786 0.757520  0.559360 0.365918 1 9 1.000000
0  0.289820 -11.298750 61.444897  -0.635198 0.150782 0.757488  0.562398 0.381285 1 9 1.000000
pyro_red
0  2.377151 -11.071054 63.217506  -0.635162 0.150787 0.757517  0.535829 0.402352 1 9 1.000000
0  0.346158 -9.735909 61.177807  -0.635159 0.150789 0.757519  0.556322 0.350550 1 9 1.000000
0  0.126471 -10.538220 61.148708  -0.635159 0.150786 0.757520  0.559360 0.365918 1 9 1.000000
pyro_red
0  2.377151 -11.071054 63.217506  -0.635162 0.150787 0.757517  0.535829 0.402352 1 9 1.000000
0  0.794070 -9.083629 61.436108  -0.635122 0.150792 0.757550  0.548161 0.348133 1 9 1.000000
0  0.346158 -9.735909 61.177807  -0.635159 0.150789 0.757519  0.556322 0.350550 1 9 1.000000
pyro_red
0  2.377151 -11.071054 63.217506  -0.635162 0.150787 0.757517  0.535829 0.402352 1 9 1.000000
0  1.417992 -8.840641 61.930569  -0.635123 0.150790 0.757550  0.540000 0.345716 1 9 1.000000
0  0.794070 -9.083629 61.436108  -0.635122 0.150792 0.757550  0.548161 0.348133 1 9 1.000000
pyro_red
0  2.377151 -11.071054 63.217506  -0.635162 0.150787 0.757517  0.535829 0.402352 1 9 1.000000
0  2.029254 -8.948889 62.485054  -0.635128 0.150786 0.757546  0.534877 0.358666 1 9 1.000000
0  1.417992 -8.840641 61.930569  -0.635123 0.150790 0.757550  0.540000 0.345716 1 9 1.000000
pyro_red
0  2.377151 -11.071054 63.217506  -0.635162 0.150787 0.757517  0.535829 0.402352 1 9 1.000000
0  2.433489 -9.508214 62.950417  -0.635162 0.150783 0.757518  0.529753 0.371617 1 9 1.000000
0  2.029254 -8.948889 62.485054  -0.635128 0.150786 0.757546  0.534877 0.358666 1 9 1.000000
pyro_red
0  2.377151 -11.071054 63.217506  -0.635162 0.150787 0.757517  0.535829 0.402352 1 9 1.000000
0  2.596838 -10.268743 63.246605  -0.635176 0.150788 0.757506  0.532791 0.386984 1 9 1.000000
0  2.433489 -9.508214 62.950417  -0.635162 0.150783 0.757518  0.529753 0.371617 1 9 1.000000
end
