"VertexLitGeneric"
{
	"$basetexture"	"models\player\medic\medic_color"
	"$bumpmap" "models\player\medic\medic_normal" 

	"$detail" "effects/tiledfire/fireLayeredSlowTiled512.vtf"	
	"$detailscale" "5"
	"$detailblendfactor" 0.01
	"$detailblendmode" 6

	"$yellow" "0"
	"$one" "1"

	"$phong" "1"
	"$phongexponent" "15"
	"$phongboost" ".7"	
	"$lightwarptexture" "models/player/pyro/pyro_lightwarp"
	"$phongfresnelranges"	"[.3 1 8]"
	"$halflambert" "0"

	// Rim lighting parameters
	"$rimlight" "1"												// To enable rim lighting (requires phong)
	"$rimlightexponent" "4"										// Exponent for phong component of rim lighting	
	"$rimlightboost" "0.5"										// Boost for ambient cube component of rim lighting

	// Cloaking
	"$cloakPassEnabled" "1"

	"$color2" "{ 255 255 255 }"
	"$colortint_base" "{ 255 255 255 }"
	"$colortint_tmp" "[0 0 0]"
	"$blendtintbybasealpha" "1"

	"Proxies"
	{
		"BurnLevel"
		{
			"resultVar" "$detailblendfactor"
		}
		"PlayerColor"
		{
			"resultVar" "$color2"
		}
	}
}
