version 1
nodes
0 "ValveBiped.Bip01_Pelvis" -1
1 "ValveBiped.Bip01_Spine" 0
2 "ValveBiped.Bip01_Spine1" 1
3 "ValveBiped.Bip01_Spine2" 2
4 "ValveBiped.Bip01_Spine4" 3
5 "ValveBiped.Bip01_Neck1" 4
6 "ValveBiped.Bip01_Head1" 5
7 "ValveBiped.forward" 6
8 "ValveBiped.Bip01_L_Clavicle" 4
9 "ValveBiped.Bip01_L_UpperArm" 8
10 "ValveBiped.Bip01_L_Forearm" 9
11 "ValveBiped.Bip01_L_Hand" 10
12 "ValveBiped.Anim_Attachment_LH" 11
13 "ValveBiped.Bip01_L_Finger4" 11
14 "ValveBiped.Bip01_L_Finger41" 13
15 "ValveBiped.Bip01_L_Finger42" 14
16 "ValveBiped.Bip01_L_Finger3" 11
17 "ValveBiped.Bip01_L_Finger31" 16
18 "ValveBiped.Bip01_L_Finger32" 17
19 "ValveBiped.Bip01_L_Finger2" 11
20 "ValveBiped.Bip01_L_Finger21" 19
21 "ValveBiped.Bip01_L_Finger22" 20
22 "ValveBiped.Bip01_L_Finger1" 11
23 "ValveBiped.Bip01_L_Finger11" 22
24 "ValveBiped.Bip01_L_Finger12" 23
25 "ValveBiped.Bip01_L_Finger0" 11
26 "ValveBiped.Bip01_L_Finger01" 25
27 "ValveBiped.Bip01_L_Finger02" 26
28 "ValveBiped.Bip01_L_Ulna" 10
29 "ValveBiped.Bip01_L_Wrist" 10
30 "ValveBiped.Bip01_L_Bicep" 9
31 "ValveBiped.Bip01_L_Shoulder" 9
32 "ValveBiped.Bip01_L_Elbow" 9
33 "ValveBiped.Bip01_L_Trapezius" 8
34 "ValveBiped.Bip01_R_Clavicle" 4
35 "ValveBiped.Bip01_R_UpperArm" 34
36 "ValveBiped.Bip01_R_Forearm" 35
37 "ValveBiped.Bip01_R_Hand" 36
38 "ValveBiped.Anim_Attachment_RH" 37
39 "ValveBiped.Bip01_R_Finger4" 37
40 "ValveBiped.Bip01_R_Finger41" 39
41 "ValveBiped.Bip01_R_Finger42" 40
42 "ValveBiped.Bip01_R_Finger3" 37
43 "ValveBiped.Bip01_R_Finger31" 42
44 "ValveBiped.Bip01_R_Finger32" 43
45 "ValveBiped.Bip01_R_Finger2" 37
46 "ValveBiped.Bip01_R_Finger21" 45
47 "ValveBiped.Bip01_R_Finger22" 46
48 "ValveBiped.Bip01_R_Finger1" 37
49 "ValveBiped.Bip01_R_Finger11" 48
50 "ValveBiped.Bip01_R_Finger12" 49
51 "ValveBiped.Bip01_R_Finger0" 37
52 "ValveBiped.Bip01_R_Finger01" 51
53 "ValveBiped.Bip01_R_Finger02" 52
54 "ValveBiped.Bip01_R_Ulna" 36
55 "ValveBiped.Bip01_R_Wrist" 36
56 "ValveBiped.Bip01_R_Elbow" 35
57 "ValveBiped.Bip01_R_Shoulder" 35
58 "ValveBiped.Bip01_R_Bicep" 35
59 "ValveBiped.Bip01_R_Trapezius" 34
60 "ValveBiped.Bip01_L_Latt" 3
61 "ValveBiped.Bip01_R_Latt" 3
62 "ValveBiped.Bip01_L_Thigh" 0
63 "ValveBiped.Bip01_L_Calf" 62
64 "ValveBiped.Bip01_L_Foot" 63
65 "ValveBiped.Bip01_L_Toe0" 64
66 "ValveBiped.Bip01_R_Thigh" 0
67 "ValveBiped.Bip01_R_Calf" 66
68 "ValveBiped.Bip01_R_Foot" 67
69 "ValveBiped.Bip01_R_Toe0" 68
end
skeleton
time 0
0  -0.000005 -0.788460 38.481480  1.570796 -0.000000 0.000001
1  0.000005 4.212788 -1.689856  1.570795 0.086294 1.570791
2  3.837400 0.000028 0.000001  -0.000000 0.000001 -0.029229
3  3.617854 0.000023 -0.000003  -0.000000 -0.000044 0.100326
4  7.539779 0.000026 -0.000000  0.000010 0.000052 0.194100
5  3.178299 -0.000032 0.000003  3.141588 -0.000019 0.372983
6  2.970290 -0.000017 -0.000000  -0.000004 0.000010 0.302762
7  0.000000 -0.000000 0.000000  -1.570796 -0.000000 -1.326447
8  2.023718 0.907439 0.852581  -1.577190 -2.025535 -0.171569
9  4.983673 -0.000007 0.000009  -1.690503 0.061441 -0.626428
10  11.123062 -0.000036 -0.000009  -0.001464 0.081035 -0.473811
11  11.208268 -0.000034 -0.000039  1.573453 -0.106734 0.134901
12  2.676088 -1.712437 -0.000000  1.570795 0.000002 1.570888
13  3.549249 0.198826 -1.489473  -0.461343 0.006090 -0.542520
14  1.219004 0.000003 0.000002  -0.130947 0.201750 -0.531561
15  0.680005 -0.000000 -0.000003  -0.000006 0.004979 -0.244270
16  3.698011 0.267563 -0.728981  -0.138071 -0.019182 -0.556250
17  1.749009 0.000003 -0.000002  -0.071780 0.011838 -0.482137
18  0.960001 -0.000005 0.000002  0.000001 0.007356 -0.430826
19  3.768507 0.152547 0.071383  0.084477 -0.074306 -0.324806
20  2.038006 -0.000009 0.000006  -0.026295 -0.018936 -0.821958
21  1.067003 0.000001 -0.000003  0.000000 0.003077 -0.216389
22  3.783928 -0.017256 0.794553  0.341068 -0.128928 -0.343521
23  1.629000 -0.000002 -0.000002  0.077044 -0.088884 -0.746703
24  0.956001 0.000007 -0.000012  -0.000002 0.002593 -0.244320
25  1.258966 -0.297982 1.252594  -1.441895 -0.608941 -0.616507
26  1.393001 -0.000006 -0.000001  -0.165650 -0.050223 0.297129
27  1.100009 -0.000003 -0.000002  0.000011 0.011266 0.362866
28  5.604153 -0.000016 -0.000007  -0.030871 0.000001 0.000005
29  11.208302 -0.000034 -0.000009  -0.057544 0.000001 -0.000005
30  5.560003 -0.700020 -0.500005  0.000000 0.000001 -0.000003
31  1.500006 -0.000005 -0.000003  0.000001 0.000001 -0.000001
32  11.123070 -0.000037 -0.000013  0.000005 0.000000 -0.100078
33  4.271704 -0.000005 0.000007  0.000000 -0.000001 -0.000003
34  2.023722 0.907442 -0.852526  1.567159 2.023839 -0.181982
35  4.983667 -0.000011 -0.000002  1.690221 -0.064742 -0.628311
36  11.123072 -0.000033 0.000013  0.000647 -0.079428 -0.474063
37  11.208316 -0.000029 0.000014  -1.563667 0.106377 0.130253
38  2.676092 -1.712462 0.000000  -1.570805 0.000002 -1.570600
39  3.549279 0.211391 1.487671  0.473646 -0.152773 -0.317796
40  1.219008 -0.000009 -0.000002  0.132557 -0.226819 -0.522168
41  0.680001 0.000003 -0.000000  0.000005 -0.006133 -0.244287
42  3.698029 0.273698 0.726622  0.177692 -0.029203 -0.162873
43  1.749006 0.000006 0.000007  0.093061 -0.045999 -0.690630
44  0.959996 -0.000004 -0.000005  0.000004 -0.009661 -0.430791
45  3.768513 0.151936 -0.072743  -0.077000 -0.013325 -0.320966
46  2.038001 0.000006 0.000012  0.029441 0.065696 -0.576336
47  1.067000 0.000003 -0.000000  -0.000001 -0.004460 -0.216349
48  3.783916 -0.023972 -0.794454  -0.276460 0.008076 -0.095148
49  1.629005 -0.000001 0.000012  -0.051981 0.087981 -0.639177
50  0.955999 0.000010 0.000010  0.000003 -0.004203 -0.244312
51  1.258942 -0.308552 -1.250057  1.858844 0.227993 -0.276089
52  1.393006 -0.000006 -0.000002  0.262618 0.069726 0.293278
53  1.100007 0.000007 0.000001  -0.000003 -0.009622 0.362884
54  5.604156 -0.000015 0.000011  0.034936 -0.000001 -0.000005
55  11.208315 -0.000030 0.000018  0.065168 -0.000001 0.000005
56  11.123073 -0.000033 0.000012  0.000005 -0.000001 -0.100078
57  1.500008 -0.000004 0.000002  -0.000002 -0.000001 -0.000001
58  5.560007 -0.700019 0.500006  -0.000001 -0.000001 -0.000003
59  4.271701 -0.000012 -0.000002  -0.000000 -0.000001 -0.000000
60  2.132011 1.532029 5.000000  -0.000000 -0.000006 -0.000001
61  2.132016 1.532028 -5.000000  -0.000000 -0.000006 -0.000003
62  3.984014 -0.000000 -0.000003  -1.573580 -0.032295 -1.494666
63  15.940023 0.000153 0.000004  -0.004926 0.060020 0.291344
64  17.709562 -0.000015 -0.000003  0.008799 0.017186 -1.002421
65  6.203998 0.000015 -0.000000  -0.001050 -0.003488 -0.555365
66  -3.984013 0.000008 0.000007  -1.567994 -0.032296 -1.646927
67  15.940015 0.000156 0.000000  0.005225 -0.060014 0.291346
68  17.709564 -0.000012 0.000000  -0.002131 -0.019446 -1.002273
69  6.203996 -0.000012 -0.000003  -0.061128 0.006497 -0.556040
time 1
0  -0.000005 -0.788460 38.481480  1.570796 -0.000000 0.000001
1  0.000005 4.212788 -1.689856  1.570795 0.086294 1.570791
2  3.837400 0.000028 0.000001  -0.000000 0.000001 -0.029229
3  3.617854 0.000023 -0.000003  -0.000000 -0.000044 0.100326
4  7.539779 0.000026 -0.000000  0.000010 0.000052 0.194100
5  3.178299 -0.000032 0.000003  3.141588 -0.000019 0.372983
6  2.970290 -0.000017 -0.000000  -0.000004 0.000010 0.302762
7  0.000000 -0.000000 0.000000  -1.570796 -0.000000 -1.326447
8  2.023718 0.907439 0.852581  -1.577190 -2.025535 -0.171569
9  4.983673 -0.000007 0.000009  -1.690503 0.061441 -0.626428
10  11.123062 -0.000036 -0.000009  -0.001464 0.081035 -0.473811
11  11.208268 -0.000034 -0.000039  1.573453 -0.106734 0.134901
12  2.676088 -1.712437 -0.000000  1.570795 0.000002 1.570888
13  3.549249 0.198826 -1.489473  -0.461343 0.006090 -0.542520
14  1.219004 0.000003 0.000002  -0.130947 0.201750 -0.531561
15  0.680005 -0.000000 -0.000003  -0.000006 0.004979 -0.244270
16  3.698011 0.267563 -0.728981  -0.138071 -0.019182 -0.556250
17  1.749009 0.000003 -0.000002  -0.071780 0.011838 -0.482137
18  0.960001 -0.000005 0.000002  0.000001 0.007356 -0.430826
19  3.768507 0.152547 0.071383  0.084477 -0.074306 -0.324806
20  2.038006 -0.000009 0.000006  -0.026295 -0.018936 -0.821958
21  1.067003 0.000001 -0.000003  0.000000 0.003077 -0.216389
22  3.783928 -0.017256 0.794553  0.341068 -0.128928 -0.343521
23  1.629000 -0.000002 -0.000002  0.077044 -0.088884 -0.746703
24  0.956001 0.000007 -0.000012  -0.000002 0.002593 -0.244320
25  1.258966 -0.297982 1.252594  -1.441895 -0.608941 -0.616507
26  1.393001 -0.000006 -0.000001  -0.165650 -0.050223 0.297129
27  1.100009 -0.000003 -0.000002  0.000011 0.011266 0.362866
28  5.604153 -0.000016 -0.000007  -0.030871 0.000001 0.000005
29  11.208302 -0.000034 -0.000009  -0.057544 0.000001 -0.000005
30  5.560003 -0.700020 -0.500005  0.000000 0.000001 -0.000003
31  1.500006 -0.000005 -0.000003  0.000001 0.000001 -0.000001
32  11.123070 -0.000037 -0.000013  0.000005 0.000000 -0.100078
33  4.271704 -0.000005 0.000007  0.000000 -0.000001 -0.000003
34  2.023722 0.907442 -0.852526  1.567159 2.023839 -0.181982
35  4.983667 -0.000011 -0.000002  1.690221 -0.064742 -0.628311
36  11.123072 -0.000033 0.000013  0.000647 -0.079428 -0.474063
37  11.208316 -0.000029 0.000014  -1.563667 0.106377 0.130253
38  2.676092 -1.712462 0.000000  -1.570805 0.000002 -1.570600
39  3.549279 0.211391 1.487671  0.473646 -0.152773 -0.317796
40  1.219008 -0.000009 -0.000002  0.132557 -0.226819 -0.522168
41  0.680001 0.000003 -0.000000  0.000005 -0.006133 -0.244287
42  3.698029 0.273698 0.726622  0.177692 -0.029203 -0.162873
43  1.749006 0.000006 0.000007  0.093061 -0.045999 -0.690630
44  0.959996 -0.000004 -0.000005  0.000004 -0.009661 -0.430791
45  3.768513 0.151936 -0.072743  -0.077000 -0.013325 -0.320966
46  2.038001 0.000006 0.000012  0.029441 0.065696 -0.576336
47  1.067000 0.000003 -0.000000  -0.000001 -0.004460 -0.216349
48  3.783916 -0.023972 -0.794454  -0.276460 0.008076 -0.095148
49  1.629005 -0.000001 0.000012  -0.051981 0.087981 -0.639177
50  0.955999 0.000010 0.000010  0.000003 -0.004203 -0.244312
51  1.258942 -0.308552 -1.250057  1.858844 0.227993 -0.276089
52  1.393006 -0.000006 -0.000002  0.262618 0.069726 0.293278
53  1.100007 0.000007 0.000001  -0.000003 -0.009622 0.362884
54  5.604156 -0.000015 0.000011  0.034936 -0.000001 -0.000005
55  11.208315 -0.000030 0.000018  0.065168 -0.000001 0.000005
56  11.123073 -0.000033 0.000012  0.000005 -0.000001 -0.100078
57  1.500008 -0.000004 0.000002  -0.000002 -0.000001 -0.000001
58  5.560007 -0.700019 0.500006  -0.000001 -0.000001 -0.000003
59  4.271701 -0.000012 -0.000002  -0.000000 -0.000001 -0.000000
60  2.132011 1.532029 5.000000  -0.000000 -0.000006 -0.000001
61  2.132016 1.532028 -5.000000  -0.000000 -0.000006 -0.000003
62  3.984014 -0.000000 -0.000003  -1.573580 -0.032295 -1.494666
63  15.940023 0.000153 0.000004  -0.004926 0.060020 0.291344
64  17.709562 -0.000015 -0.000003  0.008799 0.017186 -1.002421
65  6.203998 0.000015 -0.000000  -0.001050 -0.003488 -0.555365
66  -3.984013 0.000008 0.000007  -1.567994 -0.032296 -1.646927
67  15.940015 0.000156 0.000000  0.005225 -0.060014 0.291346
68  17.709564 -0.000012 0.000000  -0.002131 -0.019446 -1.002273
69  6.203996 -0.000012 -0.000003  -0.061128 0.006497 -0.556040
end
