// Created by Crowbar 0.62

$modelname "player/tf2_pm/engineer.mdl"

$model "engineer" "engineer_morphs_low.smd" {

	$include "engineer_flex.qci"
}
$bodygroup "hat"
{
	studio "engineer_hat_bodygroup.smd"
	blank
}
$bodygroup "rightarm"
{
	studio "engineer_glove_bodygroup.smd"
	studio "engineer_robotarm_bodygroup.smd"
	blank
}

$surfaceprop "flesh"

$contents "solid"

$illumposition -0.514 -1.347 38.444

$cdmaterials "models\player\engineer\"
$cdmaterials ""

$texturegroup "skinfamilies"
{
	{ "engineer_red"                   "engineer_head_red"        "engineer_mech_hand"      }
	{ "engineer_blue"                  "engineer_head_blue"       "engineer_mech_hand_blue" }
	{ "engineer_color"                  "engineer_head_blue"       "engineer_mech_hand_blue" }
	{ "engineer_red_zombie_alphatest"  "engineer_head_zombie"     "engineer_mech_hand"      }
	{ "engineer_blue_zombie_alphatest" "engineer_head_zombie"     "engineer_mech_hand_blue" }
}

$attachment "back_lower" "bip_spine_0" 0 0 0 rotate 0 0 0
$attachment "foot_L" "bip_foot_L" 0 0 0 rotate 0 0 0
$attachment "foot_R" "bip_foot_R" 0 0 0 rotate 0 0 0
$attachment "partyhat" "bip_head" 0 -9.26 -2.23 rotate 75 90 180
$attachment "head" "bip_head" 0 -10.66 1.23 rotate 74.7 -90 0
$attachment "eyeglow_R" "bip_head" -1.81 -4.01 -5.32 rotate 69.7 -152.97 -61.46
$attachment "eyeglow_L" "bip_head" 1.81 -4.01 -5.32 rotate 69.7 -27.03 61.46
$attachment "exhaust" "bip_hand_R" -2.86 -0.54 2.68 rotate -37.72 -175.85 -11.65
$attachment "flag" "bip_spine_2" 0.12 1.92 9.64 rotate 0.95 -6.92 -1.52

$proceduralbones "kleiner.vrd"

$include "engineer_animation.qci"

$include "engineer_collision.qci"
