version 1
nodes
0 "ValveBiped.Bip01_Pelvis" -1
1 "ValveBiped.Bip01_Spine" 0
2 "ValveBiped.Bip01_Spine1" 1
3 "ValveBiped.Bip01_Spine2" 2
4 "ValveBiped.Bip01_Spine4" 3
5 "ValveBiped.Bip01_Neck1" 4
6 "ValveBiped.Bip01_Head1" 5
7 "ValveBiped.forward" 6
8 "ValveBiped.Bip01_L_Clavicle" 4
9 "ValveBiped.Bip01_L_UpperArm" 8
10 "ValveBiped.Bip01_L_Forearm" 9
11 "ValveBiped.Bip01_L_Hand" 10
12 "ValveBiped.Anim_Attachment_LH" 11
13 "ValveBiped.Bip01_L_Finger4" 11
14 "ValveBiped.Bip01_L_Finger41" 13
15 "ValveBiped.Bip01_L_Finger42" 14
16 "ValveBiped.Bip01_L_Finger3" 11
17 "ValveBiped.Bip01_L_Finger31" 16
18 "ValveBiped.Bip01_L_Finger32" 17
19 "ValveBiped.Bip01_L_Finger2" 11
20 "ValveBiped.Bip01_L_Finger21" 19
21 "ValveBiped.Bip01_L_Finger22" 20
22 "ValveBiped.Bip01_L_Finger1" 11
23 "ValveBiped.Bip01_L_Finger11" 22
24 "ValveBiped.Bip01_L_Finger12" 23
25 "ValveBiped.Bip01_L_Finger0" 11
26 "ValveBiped.Bip01_L_Finger01" 25
27 "ValveBiped.Bip01_L_Finger02" 26
28 "ValveBiped.Bip01_L_Ulna" 10
29 "ValveBiped.Bip01_L_Wrist" 10
30 "ValveBiped.Bip01_L_Bicep" 9
31 "ValveBiped.Bip01_L_Shoulder" 9
32 "ValveBiped.Bip01_L_Elbow" 9
33 "ValveBiped.Bip01_L_Trapezius" 8
34 "ValveBiped.Bip01_R_Clavicle" 4
35 "ValveBiped.Bip01_R_UpperArm" 34
36 "ValveBiped.Bip01_R_Forearm" 35
37 "ValveBiped.Bip01_R_Hand" 36
38 "ValveBiped.Anim_Attachment_RH" 37
39 "ValveBiped.Bip01_R_Finger4" 37
40 "ValveBiped.Bip01_R_Finger41" 39
41 "ValveBiped.Bip01_R_Finger42" 40
42 "ValveBiped.Bip01_R_Finger3" 37
43 "ValveBiped.Bip01_R_Finger31" 42
44 "ValveBiped.Bip01_R_Finger32" 43
45 "ValveBiped.Bip01_R_Finger2" 37
46 "ValveBiped.Bip01_R_Finger21" 45
47 "ValveBiped.Bip01_R_Finger22" 46
48 "ValveBiped.Bip01_R_Finger1" 37
49 "ValveBiped.Bip01_R_Finger11" 48
50 "ValveBiped.Bip01_R_Finger12" 49
51 "ValveBiped.Bip01_R_Finger0" 37
52 "ValveBiped.Bip01_R_Finger01" 51
53 "ValveBiped.Bip01_R_Finger02" 52
54 "ValveBiped.Bip01_R_Ulna" 36
55 "ValveBiped.Bip01_R_Wrist" 36
56 "ValveBiped.Bip01_R_Elbow" 35
57 "ValveBiped.Bip01_R_Shoulder" 35
58 "ValveBiped.Bip01_R_Bicep" 35
59 "ValveBiped.Bip01_R_Trapezius" 34
60 "ValveBiped.Bip01_L_Latt" 3
61 "ValveBiped.Bip01_R_Latt" 3
62 "ValveBiped.Bip01_L_Thigh" 0
63 "ValveBiped.Bip01_L_Calf" 62
64 "ValveBiped.Bip01_L_Foot" 63
65 "ValveBiped.Bip01_L_Toe0" 64
66 "ValveBiped.Bip01_R_Thigh" 0
67 "ValveBiped.Bip01_R_Calf" 66
68 "ValveBiped.Bip01_R_Foot" 67
69 "ValveBiped.Bip01_R_Toe0" 68
end
skeleton
time 0
0  -0.000005 -0.788460 38.481480  1.570796 -0.000000 0.000001
1  0.000005 4.212788 -1.689856  1.570795 0.086294 1.570791
2  3.837400 0.000028 0.000001  -0.000000 0.000001 -0.029229
3  3.617854 0.000023 -0.000003  -0.000000 -0.000044 0.100326
4  7.539779 0.000026 -0.000000  0.000010 0.000052 0.194100
5  3.178299 -0.000032 0.000003  3.141588 -0.000019 0.372983
6  2.970290 -0.000017 -0.000000  -0.000004 0.000010 0.302762
7  0.000000 -0.000000 0.000000  -1.570796 -0.000000 -1.326447
8  2.023718 0.907439 0.852581  -1.577190 -2.025535 -0.171569
9  4.983673 -0.000007 0.000009  -2.542903 0.263803 -0.938164
10  11.123064 -0.000037 -0.000008  -0.001391 0.420480 -0.397798
11  11.208262 -0.000035 -0.000036  1.573453 -0.106734 0.134902
12  2.676086 -1.712438 -0.000001  1.570795 0.000002 1.570888
13  3.549242 0.198827 -1.489472  -0.457293 0.326967 -0.070158
14  1.219000 0.000002 0.000002  -0.068489 0.444291 -0.264981
15  0.680005 0.000003 -0.000001  -0.000006 0.004979 -0.244269
16  3.698007 0.267561 -0.728981  -0.194324 0.241726 -0.172026
17  1.749009 0.000004 -0.000001  -0.048238 0.358566 -0.331785
18  0.960003 -0.000006 0.000004  0.000000 0.007356 -0.430826
19  3.768505 0.152546 0.071382  0.053002 0.221770 -0.155236
20  2.038002 -0.000009 0.000005  -0.033705 0.377003 -0.529819
21  1.067006 0.000003 -0.000003  0.000000 0.003076 -0.216389
22  3.783926 -0.017256 0.794553  0.335446 0.263156 -0.152895
23  1.629002 -0.000002 -0.000002  0.040328 0.249736 -0.485923
24  0.955999 0.000006 -0.000009  -0.000002 0.002593 -0.244320
25  1.258962 -0.297983 1.252593  -1.584049 -0.100195 -0.655280
26  1.393003 -0.000003 0.000001  -0.170592 -0.468959 0.313278
27  1.100006 0.000000 -0.000002  0.000011 0.011266 0.362866
28  5.604144 -0.000018 -0.000004  -0.030871 0.000001 0.000005
29  11.208295 -0.000034 -0.000007  -0.057544 0.000001 -0.000005
30  5.560008 -0.700020 -0.500006  -0.000000 0.000001 -0.000003
31  1.500007 -0.000006 -0.000001  0.000001 0.000001 -0.000001
32  11.123071 -0.000038 -0.000012  0.000005 0.000000 -0.100078
33  4.271704 -0.000005 0.000007  0.000000 -0.000001 -0.000003
34  2.023722 0.907442 -0.852526  1.567159 2.023839 -0.181982
35  4.983667 -0.000011 -0.000002  2.544521 -0.265955 -0.940954
36  11.123073 -0.000033 0.000010  0.000524 -0.419465 -0.398880
37  11.208314 -0.000032 0.000011  -1.563667 0.106377 0.130253
38  2.676092 -1.712462 -0.000001  -1.570805 0.000002 -1.570600
39  3.549280 0.211390 1.487670  0.457444 -0.327243 -0.072939
40  1.219011 -0.000007 -0.000005  0.062421 -0.446230 -0.261545
41  0.680001 0.000003 -0.000000  0.000005 -0.006133 -0.244287
42  3.698031 0.273697 0.726621  0.185002 -0.242686 -0.175447
43  1.749003 0.000007 0.000007  0.045591 -0.357840 -0.332578
44  0.960000 -0.000004 -0.000004  0.000004 -0.009661 -0.430790
45  3.768516 0.151936 -0.072743  -0.047933 -0.222603 -0.158788
46  2.038007 0.000005 0.000013  0.032551 -0.383139 -0.525673
47  1.066998 0.000007 0.000000  -0.000001 -0.004460 -0.216349
48  3.783917 -0.023973 -0.794456  -0.333372 -0.263962 -0.156132
49  1.629005 0.000004 0.000013  -0.031686 -0.254045 -0.483844
50  0.956001 0.000012 0.000010  0.000003 -0.004203 -0.244312
51  1.258944 -0.308553 -1.250057  1.782192 0.096121 -0.660970
52  1.393006 -0.000006 -0.000004  0.206265 0.521614 0.206388
53  1.100003 0.000005 0.000000  -0.000005 -0.009622 0.362884
54  5.604155 -0.000018 0.000007  0.034936 -0.000001 -0.000005
55  11.208314 -0.000032 0.000015  0.065168 -0.000001 0.000005
56  11.123077 -0.000033 0.000009  0.000005 -0.000001 -0.100078
57  1.500011 -0.000004 0.000002  -0.000002 -0.000001 -0.000001
58  5.560011 -0.700018 0.500005  -0.000001 -0.000001 -0.000003
59  4.271701 -0.000012 -0.000002  -0.000000 -0.000001 -0.000000
60  2.132011 1.532029 5.000000  -0.000000 -0.000006 -0.000001
61  2.132016 1.532028 -5.000000  -0.000000 -0.000006 -0.000003
62  3.984014 -0.000000 -0.000003  -1.571909 -0.008480 -1.474611
63  15.940020 0.000153 0.000005  -0.004946 0.057207 0.260439
64  17.709564 -0.000014 -0.000004  0.008799 0.017186 -1.002421
65  6.203999 0.000015 -0.000001  -0.001050 -0.003488 -0.555366
66  -3.984013 0.000008 0.000007  -1.569687 -0.008481 -1.666983
67  15.940013 0.000156 0.000000  0.005209 -0.057210 0.260438
68  17.709564 -0.000012 0.000000  -0.002131 -0.019445 -1.002273
69  6.203997 -0.000013 -0.000002  -0.061128 0.006497 -0.556040
time 1
0  -0.000005 -0.788460 38.481480  1.570796 -0.000000 0.000001
1  0.000005 4.212788 -1.689856  1.570795 0.086294 1.570791
2  3.837400 0.000028 0.000001  -0.000000 0.000001 -0.029229
3  3.617854 0.000023 -0.000003  -0.000000 -0.000044 0.100326
4  7.539779 0.000026 -0.000000  0.000010 0.000052 0.194100
5  3.178299 -0.000032 0.000003  3.141588 -0.000019 0.372983
6  2.970290 -0.000017 -0.000000  -0.000004 0.000010 0.302762
7  0.000000 -0.000000 0.000000  -1.570796 -0.000000 -1.326447
8  2.023718 0.907439 0.852581  -1.577190 -2.025535 -0.171569
9  4.983673 -0.000007 0.000009  -2.542903 0.263803 -0.938164
10  11.123064 -0.000037 -0.000008  -0.001391 0.420480 -0.397798
11  11.208262 -0.000035 -0.000036  1.573453 -0.106734 0.134902
12  2.676086 -1.712438 -0.000001  1.570795 0.000002 1.570888
13  3.549242 0.198827 -1.489472  -0.457293 0.326967 -0.070158
14  1.219000 0.000002 0.000002  -0.068489 0.444291 -0.264981
15  0.680005 0.000003 -0.000001  -0.000006 0.004979 -0.244269
16  3.698007 0.267561 -0.728981  -0.194324 0.241726 -0.172026
17  1.749009 0.000004 -0.000001  -0.048238 0.358566 -0.331785
18  0.960003 -0.000006 0.000004  0.000000 0.007356 -0.430826
19  3.768505 0.152546 0.071382  0.053002 0.221770 -0.155236
20  2.038002 -0.000009 0.000005  -0.033705 0.377003 -0.529819
21  1.067006 0.000003 -0.000003  0.000000 0.003076 -0.216389
22  3.783926 -0.017256 0.794553  0.335446 0.263156 -0.152895
23  1.629002 -0.000002 -0.000002  0.040328 0.249736 -0.485923
24  0.955999 0.000006 -0.000009  -0.000002 0.002593 -0.244320
25  1.258962 -0.297983 1.252593  -1.584049 -0.100195 -0.655280
26  1.393003 -0.000003 0.000001  -0.170592 -0.468959 0.313278
27  1.100006 0.000000 -0.000002  0.000011 0.011266 0.362866
28  5.604144 -0.000018 -0.000004  -0.030871 0.000001 0.000005
29  11.208295 -0.000034 -0.000007  -0.057544 0.000001 -0.000005
30  5.560008 -0.700020 -0.500006  -0.000000 0.000001 -0.000003
31  1.500007 -0.000006 -0.000001  0.000001 0.000001 -0.000001
32  11.123071 -0.000038 -0.000012  0.000005 0.000000 -0.100078
33  4.271704 -0.000005 0.000007  0.000000 -0.000001 -0.000003
34  2.023722 0.907442 -0.852526  1.567159 2.023839 -0.181982
35  4.983667 -0.000011 -0.000002  2.544521 -0.265955 -0.940954
36  11.123073 -0.000033 0.000010  0.000524 -0.419465 -0.398880
37  11.208314 -0.000032 0.000011  -1.563667 0.106377 0.130253
38  2.676092 -1.712462 -0.000001  -1.570805 0.000002 -1.570600
39  3.549280 0.211390 1.487670  0.457444 -0.327243 -0.072939
40  1.219011 -0.000007 -0.000005  0.062421 -0.446230 -0.261545
41  0.680001 0.000003 -0.000000  0.000005 -0.006133 -0.244287
42  3.698031 0.273697 0.726621  0.185002 -0.242686 -0.175447
43  1.749003 0.000007 0.000007  0.045591 -0.357840 -0.332578
44  0.960000 -0.000004 -0.000004  0.000004 -0.009661 -0.430790
45  3.768516 0.151936 -0.072743  -0.047933 -0.222603 -0.158788
46  2.038007 0.000005 0.000013  0.032551 -0.383139 -0.525673
47  1.066998 0.000007 0.000000  -0.000001 -0.004460 -0.216349
48  3.783917 -0.023973 -0.794456  -0.333372 -0.263962 -0.156132
49  1.629005 0.000004 0.000013  -0.031686 -0.254045 -0.483844
50  0.956001 0.000012 0.000010  0.000003 -0.004203 -0.244312
51  1.258944 -0.308553 -1.250057  1.782192 0.096121 -0.660970
52  1.393006 -0.000006 -0.000004  0.206265 0.521614 0.206388
53  1.100003 0.000005 0.000000  -0.000005 -0.009622 0.362884
54  5.604155 -0.000018 0.000007  0.034936 -0.000001 -0.000005
55  11.208314 -0.000032 0.000015  0.065168 -0.000001 0.000005
56  11.123077 -0.000033 0.000009  0.000005 -0.000001 -0.100078
57  1.500011 -0.000004 0.000002  -0.000002 -0.000001 -0.000001
58  5.560011 -0.700018 0.500005  -0.000001 -0.000001 -0.000003
59  4.271701 -0.000012 -0.000002  -0.000000 -0.000001 -0.000000
60  2.132011 1.532029 5.000000  -0.000000 -0.000006 -0.000001
61  2.132016 1.532028 -5.000000  -0.000000 -0.000006 -0.000003
62  3.984014 -0.000000 -0.000003  -1.571909 -0.008480 -1.474611
63  15.940020 0.000153 0.000005  -0.004946 0.057207 0.260439
64  17.709564 -0.000014 -0.000004  0.008799 0.017186 -1.002421
65  6.203999 0.000015 -0.000001  -0.001050 -0.003488 -0.555366
66  -3.984013 0.000008 0.000007  -1.569687 -0.008481 -1.666983
67  15.940013 0.000156 0.000000  0.005209 -0.057210 0.260438
68  17.709564 -0.000012 0.000000  -0.002131 -0.019445 -1.002273
69  6.203997 -0.000013 -0.000002  -0.061128 0.006497 -0.556040
end
