// Created by Crowbar 0.62
version 1
nodes
  0 "root" -1
  1 "bip_collar_L" 0
  2 "bip_upperArm_L" 1
  3 "bip_lowerArm_L" 2
  4 "bip_hand_L" 3
  5 "bip_pinky_0_L" 4
  6 "bip_pinky_1_L" 5
  7 "bip_pinky_2_L" 6
  8 "bip_ring_0_L" 4
  9 "bip_ring_1_L" 8
  10 "bip_ring_2_L" 9
  11 "bip_middle_0_L" 4
  12 "bip_middle_1_L" 11
  13 "bip_middle_2_L" 12
  14 "bip_index_0_L" 4
  15 "bip_index_1_L" 14
  16 "bip_index_2_L" 15
  17 "bip_thumb_0_L" 4
  18 "bip_thumb_1_L" 17
  19 "bip_thumb_2_L" 18
  20 "vm_weapon_bone_L" 4
  21 "vm_weapon_bone_L_1" 4
  22 "vm_weapon_bone_L_2" 4
  23 "effect_hand_L" 4
  24 "weapon_bone_L" 4
  25 "L_Twist_4" 3
  26 "L_Twist_3" 3
  27 "L_Twist_2" 3
  28 "L_Twist_1" 3
  29 "bip_collar_R" 0
  30 "bip_upperArm_R" 29
  31 "bip_lowerArm_R" 30
  32 "bip_hand_R" 31
  33 "bip_thumb_0_R" 32
  34 "bip_thumb_1_R" 33
  35 "bip_thumb_2_R" 34
  36 "bip_index_0_R" 32
  37 "bip_index_1_R" 36
  38 "bip_index_2_R" 37
  39 "bip_middle_0_R" 32
  40 "bip_middle_1_R" 39
  41 "bip_middle_2_R" 40
  42 "bip_ring_0_R" 32
  43 "bip_ring_1_R" 42
  44 "bip_ring_2_R" 43
  45 "bip_pinky_0_R" 32
  46 "bip_pinky_1_R" 45
  47 "bip_pinky_2_R" 46
  48 "weapon_bone" 32
  49 "weapon_bone_1" 32
  50 "weapon_bone_2" 32
  51 "weapon_bone_3" 32
  52 "weapon_bone_4" 32
  53 "vm_weapon_bone_7" 32
  54 "vm_weapon_bone_6" 32
  55 "vm_weapon_bone_5" 32
  56 "vm_weapon_bone_4" 32
  57 "vm_weapon_bone_3" 32
  58 "vm_weapon_bone_2" 32
  59 "vm_weapon_bone_1" 32
  60 "vm_weapon_bone" 32
  61 "effect_hand_R" 32
  62 "R_Twist_4" 31
  63 "R_Twist_2" 31
  64 "R_Twist_1" 31
  65 "R_Twist_3" 31
  66 "bip_pinky_1_L_M" 6
  67 "bip_pinky_0_L_M" 5
  68 "bip_ring_1_L_M" 9
  69 "bip_ring_0_L_M" 8
  70 "bip_middle_1_L_M" 12
  71 "bip_middle_0_L_M" 11
  72 "bip_index_1_L_M" 15
  73 "bip_index_0_L_M" 14
  74 "bip_thumb_1_L_M" 18
  75 "bip_thumb_0_L_M" 17
  76 "bip_hand_L_M" 4
  77 "L_Twist_4_M" 25
  78 "L_Twist_3_M" 26
  79 "bip_upperArm_R_M" -1
  80 "bip_lowerArm_R_M" 79
  81 "bip_hand_R_M" 80
  82 "bip_thumb_0_R_M" 81
  83 "bip_thumb_1_R_M" 82
  84 "bip_index_0_R_M" 81
  85 "bip_index_1_R_M" 84
  86 "bip_middle_0_R_M" 81
  87 "bip_middle_1_R_M" 86
  88 "bip_ring_0_R_M" 81
  89 "bip_ring_1_R_M" 88
  90 "bip_pinky_0_R_M" 81
  91 "bip_pinky_1_R_M" 90
  92 "R_Twist_4_M" 80
  93 "R_Twist_3_M" 80
end
skeleton
  time 0
    0 0.000000 4.839844 70.500000 -1.400814 -0.000006 -0.000005
    1 3.712230 0.237984 -0.699371 -3.091878 -0.187618 -1.220390
    2 -0.000038 -5.595216 0.000000 0.004841 -0.076978 -0.791583
    3 -0.000004 -12.121773 -0.000004 -0.398232 0.000000 0.000000
    4 0.000008 -14.193256 0.000006 -0.000002 0.000001 0.000000
    5 -0.228046 -4.503624 -3.220764 2.303421 1.249050 1.824641
    6 -0.000001 -2.339817 -0.000008 0.532752 0.000000 0.000000
    7 0.000000 -1.654045 0.000003 0.288900 0.000000 0.000000
    8 -0.394402 -5.352406 -1.896417 2.679719 1.313031 2.280463
    9 0.000002 -2.377277 -0.000006 0.603839 0.000000 0.000000
    10 -0.000001 -2.165993 -0.000005 0.435961 0.000000 0.000000
    11 0.179253 -5.739483 -0.211236 2.544153 1.333079 2.152035
    12 0.000000 -2.810287 -0.000008 0.567997 0.000000 0.000000
    13 -0.000003 -2.500324 -0.000004 0.379378 0.000000 0.000000
    14 0.237595 -5.361633 1.505611 1.194107 1.495122 0.825044
    15 0.000000 -2.789352 0.000006 0.702672 0.000000 0.000000
    16 0.000002 -1.804714 0.000003 0.186511 0.000000 0.000000
    17 -1.859833 -2.648403 2.207248 -0.230184 0.072421 -0.360503
    18 0.000004 -2.049988 0.000002 0.110142 0.000000 0.000000
    19 0.000004 -1.291382 0.000000 -0.075805 0.000000 0.000000
    20 -3.359375 -1.792969 -0.569824 1.892775 0.245521 -0.382457
    21 -4.058594 -3.218750 -1.083984 1.892775 0.245521 -0.382457
    22 -4.710938 -4.546875 -1.564453 1.892775 0.245521 -0.382457
    23 -1.718750 -2.865234 -0.856934 0.074701 -0.380022 2.911374
    24 -1.709961 -2.521484 -0.791504 1.892775 0.245521 -0.382457
    25 -0.000019 -13.693237 0.000048 -0.000001 0.000082 -1.570737
    26 -0.000015 -10.644253 0.000018 -0.000002 0.000001 -1.570789
    27 -0.000027 -7.096237 0.000040 -0.000001 0.000002 -1.570799
    28 -0.000019 -3.548241 0.000034 0.000000 0.000001 -1.570795
    29 -3.712231 0.238045 -0.699375 0.049715 0.187618 1.220390
    30 -0.000061 5.595212 0.000000 0.004841 -0.076978 -0.791582
    31 0.000027 12.121799 0.000010 -0.398230 0.000000 0.000000
    32 0.000031 14.193335 0.000018 0.000000 0.000000 0.000000
    33 1.859814 2.648296 -2.207273 -0.230184 0.072421 -0.360503
    34 -0.000025 2.050014 0.000000 0.110142 0.000000 0.000000
    35 0.000031 1.291420 0.000015 -0.075805 0.000000 0.000000
    36 -0.237625 5.361586 -1.505616 1.194143 1.495125 0.825086
    37 0.000009 2.789341 0.000013 0.702672 0.000000 0.000000
    38 0.000002 1.804733 0.000018 0.186511 0.000000 0.000000
    39 -0.179276 5.739391 0.211207 2.544153 1.333079 2.152035
    40 -0.000008 2.810341 -0.000021 0.567997 0.000000 0.000000
    41 -0.000008 2.500298 0.000021 0.379377 0.000000 0.000000
    42 0.394356 5.352350 1.896400 2.679719 1.313030 2.280463
    43 -0.000006 2.377308 0.000017 0.603839 0.000000 0.000000
    44 -0.000001 2.165993 0.000015 0.435961 0.000000 0.000000
    45 0.227985 4.503643 3.220768 2.303421 1.249050 1.824641
    46 -0.000008 2.339733 0.000071 0.532752 0.000000 0.000000
    47 0.000010 1.654015 -0.000047 0.288900 0.000000 0.000000
    48 1.710587 2.522314 0.791924 -1.256878 -0.000924 -0.448036
    49 2.397549 3.952658 1.307071 -1.256878 -0.000924 -0.448036
    50 3.039047 5.288353 1.788116 -1.256878 -0.000924 -0.448036
    51 3.730667 6.728416 2.306771 -1.256878 -0.000924 -0.448036
    52 4.529053 8.390823 2.905490 -1.256878 -0.000924 -0.448036
    53 8.101563 11.343750 4.015625 -1.256876 -0.000923 -0.448034
    54 7.441406 10.000000 3.533203 -1.256876 -0.000923 -0.448034
    55 6.757813 8.593750 3.027344 -1.256876 -0.000923 -0.448034
    56 6.156250 7.371094 2.583984 -1.256876 -0.000923 -0.448034
    57 5.464844 5.960938 2.074219 -1.256876 -0.000923 -0.448034
    58 4.761719 4.523438 1.557617 -1.256876 -0.000923 -0.448034
    59 4.109375 3.195313 1.077148 -1.256876 -0.000923 -0.448034
    60 3.412109 1.770508 0.562988 -1.256876 -0.000923 -0.448034
    61 1.718750 2.865234 0.856934 -0.074697 0.380029 -0.230206
    62 0.000111 13.691053 0.000012 0.000000 -0.000015 1.570951
    63 0.000046 7.094032 0.000002 0.000000 -0.000001 1.570798
    64 0.000031 3.546040 0.000008 0.000000 0.000000 1.570796
    65 0.000092 10.642044 0.000037 0.000000 0.000004 1.570807
    66 0.000010 -0.000027 0.000049 0.000000 0.000000 0.000000
    67 0.000002 -0.000031 0.000021 0.000000 0.000000 0.000000
    68 0.000010 -0.000027 0.000043 0.000000 0.000000 0.000000
    69 0.000009 -0.000038 0.000021 0.000000 0.000000 0.000000
    70 0.000010 -0.000042 0.000046 0.000000 0.000000 0.000000
    71 0.000010 -0.000034 0.000010 0.000000 0.000000 0.000000
    72 0.000013 -0.000023 0.000038 0.000000 0.000000 0.000000
    73 0.000013 -0.000034 0.000011 0.000000 0.000000 0.000000
    74 0.000017 -0.000031 -0.000019 0.000000 0.000000 0.000000
    75 0.000010 -0.000031 -0.000019 0.000000 0.000000 0.000000
    76 0.000000 -0.000031 -0.000010 0.000000 0.000000 0.000000
    77 0.000038 -0.000004 -0.000012 0.000000 0.000000 0.000000
    78 0.000019 -0.000008 -0.000011 0.000000 0.000000 0.000000
    79 -8.943370 68.255310 -14.803104 -3.079681 -0.019808 -0.432067
    80 0.000046 12.121796 0.000011 -0.398230 0.000000 0.000000
    81 0.000027 14.193333 0.000012 0.000000 0.000000 0.000000
    82 1.859810 2.648293 -2.207276 -0.230184 0.072421 -0.360503
    83 -0.000023 2.050011 -0.000002 0.110142 0.000000 0.000000
    84 -0.237633 5.361588 -1.505621 1.194141 1.495125 0.825081
    85 0.000008 2.789345 0.000008 0.702672 0.000000 0.000000
    86 -0.179268 5.739395 0.211202 2.544152 1.333079 2.152035
    87 -0.000004 2.810326 -0.000029 0.567997 0.000000 0.000000
    88 0.394371 5.352360 1.896398 2.679719 1.313030 2.280463
    89 -0.000001 2.377289 0.000021 0.603839 0.000000 0.000000
    90 0.228001 4.503633 3.220767 2.303421 1.249050 1.824642
    91 -0.000004 2.339741 0.000072 0.532752 0.000000 0.000000
    92 0.000111 13.691036 -0.000001 0.000000 -0.000015 1.570951
    93 0.000095 10.642036 0.000031 0.000000 0.000004 1.570807
end
